%YAML 1.1
%TAG !u! tag:unity3d.com,2011:
--- !u!1 &1000013276728082
GameObject:
  m_ObjectHideFlags: 0
  m_CorrespondingSourceObject: {fileID: 0}
  m_PrefabInstance: {fileID: 0}
  m_PrefabAsset: {fileID: 0}
  serializedVersion: 6
  m_Component:
  - component: {fileID: 4000010198742726}
  - component: {fileID: 33000010520290698}
  - component: {fileID: 23000011900264402}
  - component: {fileID: 114000012808803664}
  m_Layer: 4
  m_Name: StylizedWater_Mobile
  m_TagString: Untagged
  m_Icon: {fileID: 0}
  m_NavMeshLayer: 0
  m_StaticEditorFlags: 0
  m_IsActive: 1
--- !u!4 &4000010198742726
Transform:
  m_ObjectHideFlags: 0
  m_CorrespondingSourceObject: {fileID: 0}
  m_PrefabInstance: {fileID: 0}
  m_PrefabAsset: {fileID: 0}
  m_GameObject: {fileID: 1000013276728082}
  m_LocalRotation: {x: 0, y: 0, z: 0, w: 1}
  m_LocalPosition: {x: 0, y: 0, z: 0}
  m_LocalScale: {x: 1, y: 1, z: 1}
  m_Children: []
  m_Father: {fileID: 0}
  m_RootOrder: 0
  m_LocalEulerAnglesHint: {x: 0, y: 0, z: 0}
--- !u!33 &33000010520290698
MeshFilter:
  m_ObjectHideFlags: 0
  m_CorrespondingSourceObject: {fileID: 0}
  m_PrefabInstance: {fileID: 0}
  m_PrefabAsset: {fileID: 0}
  m_GameObject: {fileID: 1000013276728082}
  m_Mesh: {fileID: 4300010, guid: 5fcac6ea62606f844b312837ed35e1ae, type: 3}
--- !u!23 &23000011900264402
MeshRenderer:
  m_ObjectHideFlags: 0
  m_CorrespondingSourceObject: {fileID: 0}
  m_PrefabInstance: {fileID: 0}
  m_PrefabAsset: {fileID: 0}
  m_GameObject: {fileID: 1000013276728082}
  m_Enabled: 1
  m_CastShadows: 0
  m_ReceiveShadows: 1
  m_DynamicOccludee: 1
  m_MotionVectors: 1
  m_LightProbeUsage: 1
  m_ReflectionProbeUsage: 1
  m_RenderingLayerMask: 1
  m_RendererPriority: 0
  m_Materials:
  - {fileID: 2100000, guid: f4248de3f6095664f97000e850cb9264, type: 2}
  m_StaticBatchInfo:
    firstSubMesh: 0
    subMeshCount: 0
  m_StaticBatchRoot: {fileID: 0}
  m_ProbeAnchor: {fileID: 0}
  m_LightProbeVolumeOverride: {fileID: 0}
  m_ScaleInLightmap: 1
  m_ReceiveGI: 1
  m_PreserveUVs: 0
  m_IgnoreNormalsForChartDetection: 0
  m_ImportantGI: 0
  m_StitchLightmapSeams: 1
  m_SelectedEditorRenderState: 3
  m_MinimumChartSize: 4
  m_AutoUVMaxDistance: 0.5
  m_AutoUVMaxAngle: 89
  m_LightmapParameters: {fileID: 0}
  m_SortingLayerID: 0
  m_SortingLayer: 0
  m_SortingOrder: 0
--- !u!114 &114000012808803664
MonoBehaviour:
  m_ObjectHideFlags: 0
  m_CorrespondingSourceObject: {fileID: 0}
  m_PrefabInstance: {fileID: 0}
  m_PrefabAsset: {fileID: 0}
  m_GameObject: {fileID: 1000013276728082}
  m_Enabled: 1
  m_EditorHideFlags: 0
  m_Script: {fileID: 11500000, guid: 1cc7260e5c788434f8949885bb0e0241, type: 3}
  m_Name: 
  m_EditorClassIdentifier: 
  shaderNames:
  - Mobile
  shaderIndex: 0
  shader: {fileID: 4800000, guid: 644d4419f6d30214892dd65158332ba7, type: 3}
  renderQueue: 3000
  enableVertexColors: 0
  isUnlit: 0
  enableGradient: 0
  colorGradient:
    serializedVersion: 2
    key0: {r: 0.11764706, g: 0.70980394, b: 1, a: 0}
    key1: {r: 0, g: 0.4117647, b: 0.9764706, a: 1}
    key2: {r: 0, g: 0, b: 0, a: 1}
    key3: {r: 0, g: 0, b: 0, a: 0}
    key4: {r: 0, g: 0, b: 0, a: 0}
    key5: {r: 0, g: 0, b: 0, a: 0}
    key6: {r: 0, g: 0, b: 0, a: 0}
    key7: {r: 0, g: 0, b: 0, a: 0}
    ctime0: 0
    ctime1: 65535
    ctime2: 0
    ctime3: 0
    ctime4: 0
    ctime5: 0
    ctime6: 0
    ctime7: 0
    atime0: 0
    atime1: 65535
    atime2: 65535
    atime3: 65535
    atime4: 0
    atime5: 0
    atime6: 0
    atime7: 0
    m_Mode: 0
    m_NumColorKeys: 2
    m_NumAlphaKeys: 2
  waterShallowColor: {r: 0.41911757, g: 1, b: 0.8798174, a: 1}
  depth: 13
  waterColor: {r: 0.1176471, g: 0.6348885, b: 1, a: 0}
  fresnelColor: {r: 0.5, g: 0.8551724, b: 1, a: 0.084}
  fresnel: 2.6
  rimColor: {r: 1, g: 1, b: 1, a: 0.509}
  waveTint: -0.077
  pixelate: 0
  transparency: 1
  glossiness: 1
  metallicness: 0
  edgeFade: 0.2448298
  tilingMethodNames:
  - Mesh UV
  - World-aligned (planar)
  worldSpaceTiling: 0
  refractionAmount: 0.057
  enableNormalMap: 1
  normalStrength: 0.15
  enableMacroNormals: 0
  macroNormalsDistance: 1000
  normalTiling: 0.79999995
  intersectionSolver: 0
  intersectionSolverNames:
  - Depth-based
  - Vertex color (red)
  rimSize: 4.6
  rimFalloff: 1.8
  rimTiling: 0.5
  rimDistortion: 0.139
  enableVCIntersection: 0
  foamSolver: 1
  foamSolverNames:
  - Normal map
  - Intersection texture
  foamOpacity: 0.1
  foamTiling: 0.15
  foamSize: 0
  foamDistortion: 0.45
  foamSpeed: 0.1
  waveFoam: 0
  reflectionStrength: 1
  reflectionFresnel: 2
  showReflection: 0
  reflectionRefraction: 0.006
  waveSpeed: 0.75
  waveStrength: 0.011
  waveDirectionXZ: {x: 1, y: 0, z: 0, w: 0}
  enableSecondaryWaves: 0
  customIntersection: {fileID: 0}
  customNormal: {fileID: 0}
  customHeightmap: {fileID: 0}
  tessellation: 20
  intersectionStyleNames:
  - None
  - Windwaker
  - Foamy
  - Foamy2
  - Triangular
  - Cells
  - Perlin
  - Custom...
  intersectionStyle: 1
  waveStyleNames:
  - Perlin
  - Plasma
  - Circular
  - Stream
  - Sharp
  - Cells
  - Cloudy
  - Crinkled
  - Custom...
  waveStyle: 0
  waveHeightmapNames:
  - Smooth
  - Sharp
  - Billowed
  - Wide
  - Chaotic
  - Custom...
  waveHeightmapStyle: 0
  waveSize: 0.1
  useCustomIntersection: 0
  useCustomNormals: 0
  useCustomHeightmap: 0
  normals: {fileID: 2800000, guid: 3a41e7c7976846a47a62be3520f418ed, type: 3}
  shadermap: {fileID: 2800000, guid: 79c7ba25d6c5cf644b73f1961a00bfa4, type: 3}
  colorGradientTex: {fileID: 2800000, guid: 7e177bfc0bd15734bb6123a25bd6b7c6, type: 3}
  useCompression: 0
  useReflection: 0
  useRefractionCam: 0
  enableReflectionBlur: 0
  reflectionBlurLength: 4
  reflectionBlurPasses: 4
  refractionSolverNames:
  - Performance
  - Appearance
  refractionSolver: 0
  resolutionNames:
  - Low
  - Medium
  - High
  reflectionRes: 1
  refractRes: 2
  reflectionTextureSize: 512
  refractTextureSize: 1024
  clipPlaneOffset: 0.07
  reflectLayers:
    serializedVersion: 2
    m_Bits: 4294967295
  refractLayers:
    serializedVersion: 2
    m_Bits: 4294967295
  enableMaskRendering: 0
  swsRendererTextureSize: 1024
  swsMaskRenderLayers:
    serializedVersion: 2
    m_Bits: 0
  renderCam: {fileID: 0}
  targetMeshInfo: {x: 0, y: 0, z: 0, w: 0}
  lightingMethod: 2
  lightingMethodNames:
  - Unlit
  - Basic
  - Advanced
  enableShadows: 0
  shadowCaster: {fileID: 0}
  currentCam: {fileID: 0}
  material: {fileID: 2100000, guid: f4248de3f6095664f97000e850cb9264, type: 2}
  isMobileAdvanced: 0
  isMobilePlatform: 1
  isMobileBasic: 0
  shaderName: StylizedWater/Desktop
  isWaterLayer: 1
  hasShaderParams: 1
  hasMaterial: 1
  usingSinglePassRendering: 0
  showLighting: 0
  showColors: 0
  showSurface: 0
  showNormals: 0
  showIntersection: 0
  showHighlights: 0
  showDepth: 0
  showWaves: 0
  showAdvanced: 1
  hideMaterialInspector: 0
  hideMeshRenderer: 1
  realtimeEditing: 0
