%YAML 1.1
%TAG !u! tag:unity3d.com,2011:
--- !u!21 &2100000
Material:
  serializedVersion: 6
  m_ObjectHideFlags: 0
  m_CorrespondingSourceObject: {fileID: 0}
  m_PrefabInstance: {fileID: 0}
  m_PrefabAsset: {fileID: 0}
  m_Name: SWS_LakeDemo_Material
  m_Shader: {fileID: 4800000, guid: 644d4419f6d30214892dd65158332ba7, type: 3}
  m_ShaderKeywords: _ENABLE_SHADOWS_ON _ENABLE_VC_ON _KEYWORD0_ON _LIGHTING_ON _NORMAL_MAP_ON
    _PIXELATE_ON _SECONDARYFOAMALWAYSVISIBLE_ON _SECONDARY_WAVES_ON _WORLDSPACETILING_ON
  m_LightmapFlags: 0
  m_EnableInstancingVariants: 0
  m_DoubleSidedGI: 0
  m_CustomRenderQueue: 3000
  stringTagMap: {}
  disabledShaderPasses: []
  m_SavedProperties:
    serializedVersion: 3
    m_TexEnvs:
    - _ColorGradient:
        m_Texture: {fileID: 2800000, guid: 438c3545ac6a3044abbf188f35dec392, type: 3}
        m_Scale: {x: 1, y: 1}
        m_Offset: {x: 0, y: 0}
    - _DepthTex:
        m_Texture: {fileID: 0}
        m_Scale: {x: 1, y: 1}
        m_Offset: {x: 0, y: 0}
    - _DummyTex:
        m_Texture: {fileID: 0}
        m_Scale: {x: 1, y: 1}
        m_Offset: {x: 0, y: 0}
    - _GradientTex:
        m_Texture: {fileID: 0}
        m_Scale: {x: 1, y: 1}
        m_Offset: {x: 0, y: 0}
    - _Normals:
        m_Texture: {fileID: 2800000, guid: b24e50a74c826ca478a68acf3efd5f6b, type: 3}
        m_Scale: {x: 1, y: 1}
        m_Offset: {x: 0, y: 0}
    - _Reflection:
        m_Texture: {fileID: 0}
        m_Scale: {x: 1, y: 1}
        m_Offset: {x: 0, y: 0}
    - _ReflectionTex:
        m_Texture: {fileID: 0}
        m_Scale: {x: 1, y: 1}
        m_Offset: {x: 0, y: 0}
    - _RefractionTex:
        m_Texture: {fileID: 0}
        m_Scale: {x: 1, y: 1}
        m_Offset: {x: 0, y: 0}
    - _Shadermap:
        m_Texture: {fileID: 2800000, guid: 2ce09a3e51d197a4b91100d1e9e1c153, type: 3}
        m_Scale: {x: 1, y: 1}
        m_Offset: {x: 0, y: 0}
    - _texcoord:
        m_Texture: {fileID: 0}
        m_Scale: {x: 1, y: 1}
        m_Offset: {x: 0, y: 0}
    m_Floats:
    - _Cutoff: 0.5
    - _Depth: 13.5
    - _Depthdarkness: 0
    - _ENABLE_GRADIENT: 0
    - _ENABLE_NORMALS: 1
    - _ENABLE_SHADOWS: 1
    - _ENABLE_VC: 1
    - _EdgeFade: 0.56
    - _EnableVertexColors: 1
    - _Float3: 0.85
    - _FoamDistortion: 0.66
    - _FoamOpacity: 0.03
    - _FoamSize: 0
    - _FoamSpeed: 0
    - _FoamTiling: 0.100000076
    - _Fresnelexponent: 1.38
    - _Glossiness: 0.96
    - _HighlightPanning: 0
    - _IntersectionDistortion: 0.1
    - _Keyword0: 1
    - _LIGHTING: 0
    - _MACRO_WAVES: 1
    - _MacroBlendDistance: 250
    - _MaskClipValue: 0.5
    - _Metallicness: 0
    - _NORMAL_MAP: 1
    - _NormalStrength: 0.175
    - _NormalTiling: 0.9
    - _Pixelate: 0
    - _RT_REFRACTION: 0
    - _Reflection: 0
    - _ReflectionFresnel: 2
    - _ReflectionRefraction: 0.012
    - _ReflectionStrength: 0
    - _RefractionAmount: 0.013
    - _RimContrast: 1
    - _RimDistance: 1.13
    - _RimDistortion: 0.192
    - _RimSize: 6.5
    - _Rimfalloff: 8.2
    - _Rimtiling: 0.3299995
    - _SECONDARY_WAVES: 0
    - _SurfaceHighlight: 0
    - _SurfaceHighlightsDistortion: 0.77
    - _SurfaceHighlightsSpeed: 0.067
    - _SurfaceHightlighttiling: 0.15
    - _Surfacehightlightsize: 0
    - _Tessellation: 20
    - _Tiling: 0.7500001
    - _Transparency: 1
    - _USE_VC_INTERSECTION: 0
    - _Unlit: 0
    - _UseIntersectionFoam: 0
    - _UseIntersectionHighlight: 1
    - _WaveFoam: 0
    - _WaveHeight: 0.127
    - _WaveSize: 1.6900002
    - _Wavefoam: 1
    - _Wavesspeed: 1.05
    - _Wavesstrength: 0.093
    - _Wavetint: -0.074
    - _Worldspacetiling: 1
    - __dirty: 0
    m_Colors:
    - _FresnelColor: {r: 0.29411763, g: 0.64949304, b: 1, a: 0}
    - _RimColor: {r: 1, g: 1, b: 1, a: 0.078}
    - _WaterColor: {r: 0.1397059, g: 0.6796147, b: 1, a: 0}
    - _WaterShallowColor: {r: 0, g: 1, b: 0.6689658, a: 0}
    - _WaveDirection: {r: 0.01, g: 0, b: 0.69, a: 0}
