<svg width="109" height="109" viewBox="0 0 109 109" fill="none" xmlns="http://www.w3.org/2000/svg">
<g filter="url(#filter0_d)">
<path d="M2.60449 52.6738C2.60449 25.0596 24.9903 2.67383 52.6045 2.67383C80.2187 2.67383 102.604 25.0596 102.604 52.6738C102.604 80.2881 80.2187 102.674 52.6045 102.674C24.9903 102.674 2.60449 80.2881 2.60449 52.6738Z" fill="url(#paint0_linear)"/>
<path d="M3.60449 52.6738C3.60449 25.6119 25.5425 3.67383 52.6045 3.67383C79.6664 3.67383 101.604 25.6119 101.604 52.6738C101.604 79.7358 79.6664 101.674 52.6045 101.674C25.5425 101.674 3.60449 79.7358 3.60449 52.6738Z" stroke="url(#paint1_linear)" stroke-opacity="0.1" stroke-width="2"/>
</g>
<defs>
<filter id="filter0_d" x="0.604492" y="0.673828" width="108" height="108" filterUnits="userSpaceOnUse" color-interpolation-filters="sRGB">
<feFlood flood-opacity="0" result="BackgroundImageFix"/>
<feColorMatrix in="SourceAlpha" type="matrix" values="0 0 0 0 0 0 0 0 0 0 0 0 0 0 0 0 0 0 127 0"/>
<feOffset dx="2" dy="2"/>
<feGaussianBlur stdDeviation="2"/>
<feColorMatrix type="matrix" values="0 0 0 0 0 0 0 0 0 0 0 0 0 0 0 0 0 0 0.75 0"/>
<feBlend mode="normal" in2="BackgroundImageFix" result="effect1_dropShadow"/>
<feBlend mode="normal" in="SourceGraphic" in2="effect1_dropShadow" result="shape"/>
</filter>
<linearGradient id="paint0_linear" x1="18.6067" y1="2.67383" x2="109.342" y2="88.1563" gradientUnits="userSpaceOnUse">
<stop offset="0.414312" stop-color="#52546B"/>
<stop offset="0.962896" stop-color="#3A3941"/>
</linearGradient>
<linearGradient id="paint1_linear" x1="2.60449" y1="2.67383" x2="114.784" y2="86.3448" gradientUnits="userSpaceOnUse">
<stop stop-color="#95AAEC"/>
<stop offset="0.9999" stop-color="#E1E4FF"/>
</linearGradient>
</defs>
</svg>
