<svg width="47" height="46" viewBox="0 0 47 46" fill="none" xmlns="http://www.w3.org/2000/svg">
<path d="M40.143 37.4883C40.374 37.4883 40.6006 37.3942 40.764 37.2309C40.9277 37.0675 41.0218 36.8405 41.0218 36.6095C41.0218 36.3785 40.9277 36.1516 40.764 35.9882C40.6006 35.8248 40.374 35.7307 40.143 35.7307C39.9109 35.7307 39.6851 35.8248 39.5217 35.9882C39.3572 36.1516 39.2642 36.3785 39.2642 36.6095C39.2642 36.8405 39.3572 37.0675 39.5217 37.2309C39.6851 37.3942 39.9116 37.4883 40.143 37.4883Z" fill="url(#paint0_linear)"/>
<path d="M34.4252 2.90176C39.6712 5.82134 43.4731 10.6112 45.1311 16.3886C45.1344 16.4003 45.1376 16.4116 45.1409 16.4232C46.5687 21.4291 46.2114 26.8042 44.1339 31.5619C43.9316 32.0254 43.3918 32.2369 42.9285 32.0347C42.465 31.8324 42.2535 31.2926 42.4557 30.8293C44.3635 26.4599 44.6915 21.5239 43.3799 16.9255C43.377 16.915 43.3738 16.904 43.3709 16.8936C40.2277 5.93984 28.7698 -0.43311 17.8295 2.68719C6.8716 5.81251 0.499233 17.2702 3.62455 28.2281C6.74629 39.174 18.2044 45.5463 29.1664 42.433C31.4846 41.7747 33.6424 40.7355 35.5796 39.3447C35.9905 39.0498 36.5625 39.1437 36.8574 39.5545C37.1522 39.9649 37.0584 40.5374 36.6475 40.8323C34.5378 42.3469 32.1891 43.4781 29.6667 44.1945C17.7345 47.5835 5.26196 40.6463 1.86346 28.7306C-1.53886 16.8014 5.3982 4.32865 17.3272 0.926378C23.1039 -0.721371 29.1762 -0.0197926 34.4252 2.90176Z" fill="url(#paint1_linear)"/>
<defs>
<linearGradient id="paint0_linear" x1="0.998291" y1="0.0539551" x2="51.48" y2="37.7095" gradientUnits="userSpaceOnUse">
<stop stop-color="#95AAEC"/>
<stop offset="0.9999" stop-color="#E1E4FF"/>
</linearGradient>
<linearGradient id="paint1_linear" x1="0.998291" y1="0.0539551" x2="51.48" y2="37.7095" gradientUnits="userSpaceOnUse">
<stop stop-color="#95AAEC"/>
<stop offset="0.9999" stop-color="#E1E4FF"/>
</linearGradient>
</defs>
</svg>
