<svg width="54" height="54" viewBox="0 0 54 54" fill="none" xmlns="http://www.w3.org/2000/svg">
<g filter="url(#filter0_d)">
<path d="M16.8527 20.4269H11.6034C11.1893 20.4269 10.8535 20.7627 10.8535 21.1769V28.6769C10.8535 29.0911 11.1893 29.4269 11.6034 29.4269H16.8527C17.2668 29.4269 17.6026 29.0911 17.6026 28.6769V21.1769C17.6026 20.7627 17.2668 20.4269 16.8527 20.4269ZM16.1028 27.9269H12.3533V21.9269H16.1028V27.9269Z" fill="#BFCAF6"/>
<path d="M29.6008 20.4269H24.3515C23.9374 20.4269 23.6016 20.7627 23.6016 21.1769V28.6769C23.6016 29.0911 23.9374 29.4269 24.3515 29.4269H29.6008C30.0149 29.4269 30.3507 29.0911 30.3507 28.6769V21.1769C30.3507 20.7627 30.0149 20.4269 29.6008 20.4269ZM28.8509 27.9269H25.1015V21.9269H28.8509V27.9269Z" fill="#BFCAF6"/>
<path d="M29.6008 32.4269H24.3515C23.9374 32.4269 23.6016 32.7627 23.6016 33.1769V40.6769C23.6016 41.0911 23.9374 41.4269 24.3515 41.4269H29.6008C30.0149 41.4269 30.3507 41.0911 30.3507 40.6769V33.1769C30.3507 32.7627 30.0149 32.4269 29.6008 32.4269ZM28.8509 39.9269H25.1015V33.9268H28.8509V39.9269Z" fill="#BFCAF6"/>
<path d="M41.5991 20.4269H36.3498C35.9357 20.4269 35.5999 20.7627 35.5999 21.1769V28.6769C35.5999 29.0911 35.9357 29.4269 36.3498 29.4269H41.5991C42.0132 29.4269 42.349 29.0911 42.349 28.6769V21.1769C42.349 20.7627 42.0132 20.4269 41.5991 20.4269ZM40.8492 27.9269H37.0998V21.9269H40.8492V27.9269Z" fill="#BFCAF6"/>
<path d="M16.8527 32.4269H11.6034C11.1893 32.4269 10.8535 32.7627 10.8535 33.1769V40.6769C10.8535 41.0911 11.1893 41.4269 11.6034 41.4269H16.8527C17.2668 41.4269 17.6026 41.0911 17.6026 40.6769V33.1769C17.6026 32.7627 17.2668 32.4269 16.8527 32.4269ZM16.1028 39.9269H12.3533V33.9268H16.1028V39.9269Z" fill="#BFCAF6"/>
<path d="M41.5991 32.4269H36.3498C35.9357 32.4269 35.5999 32.7627 35.5999 33.1769V40.6769C35.5999 41.0911 35.9357 41.4269 36.3498 41.4269H41.5991C42.0132 41.4269 42.349 41.0911 42.349 40.6769V33.1769C42.349 32.7627 42.0132 32.4269 41.5991 32.4269ZM40.8492 39.9269H37.0998V33.9268H40.8492V39.9269Z" fill="#BFCAF6"/>
<path d="M46.0985 43.6769V18.1768H46.8483C47.2625 18.1768 47.5982 17.841 47.5982 17.4268V13.6768C47.5982 13.2626 47.2625 12.9268 46.8483 12.9268H46.0985V9.92686C46.0985 9.51266 45.7627 9.17686 45.3486 9.17686H43.8488V0.926752C43.8488 0.51255 43.5131 0.176758 43.0989 0.176758H10.1036C9.6895 0.176758 9.35376 0.51255 9.35376 0.926752V9.17677H7.85399C7.43985 9.17677 7.10411 9.51257 7.10411 9.92677V12.9267H6.35423C5.94009 12.9267 5.60435 13.2625 5.60435 13.6767V17.4267C5.60435 17.8409 5.94009 18.1767 6.35423 18.1767H7.10411V43.6768H4.10449V45.1768H49.1045V43.6768H46.0985V43.6769ZM10.8535 1.67675H42.349V9.17677H10.8535V1.67675ZM8.60388 10.6768H44.5986V12.9267H8.60388V10.6768ZM8.60388 43.6769V18.1768H44.5987V43.6769H8.60388ZM7.10411 16.6768V14.4268H46.0985V16.6768H7.10411Z" fill="#BFCAF6"/>
<path d="M25.4494 4.24274C25.3302 3.93789 25.1626 3.67462 24.9466 3.45302C24.7307 3.23141 24.4708 3.05754 24.1671 2.93157C23.8634 2.8056 23.5271 2.74258 23.1581 2.74258C22.7892 2.74258 22.4523 2.80499 22.1475 2.9299C21.8427 3.05481 21.5817 3.2286 21.3646 3.45135C21.1475 3.67409 20.9794 3.93789 20.8601 4.24283C20.7409 4.54768 20.6813 4.87899 20.6813 5.23676C20.6813 5.59452 20.7409 5.92583 20.8601 6.23068C20.9794 6.53553 21.1475 6.79933 21.3646 7.02217C21.5817 7.24492 21.8427 7.4187 22.1475 7.54361C22.4523 7.66852 22.7892 7.73094 23.1581 7.73094C23.5271 7.73094 23.8634 7.66852 24.1671 7.54361C24.4709 7.41879 24.7307 7.24492 24.9466 7.02217C25.1626 6.79942 25.3302 6.53562 25.4494 6.23068C25.5687 5.92583 25.6283 5.59452 25.6283 5.23676C25.6283 4.8789 25.5686 4.54759 25.4494 4.24274ZM24.5906 5.95722C24.5197 6.16985 24.4179 6.34988 24.2851 6.49721C24.1524 6.64462 23.991 6.75767 23.8009 6.83643C23.6108 6.91519 23.3965 6.95457 23.158 6.95457C22.9196 6.95457 22.7047 6.91519 22.5135 6.83643C22.3223 6.75767 22.1598 6.64462 22.0259 6.49721C21.8921 6.34979 21.7891 6.16985 21.7172 5.95722C21.6452 5.74458 21.6091 5.50442 21.6091 5.23667C21.6091 4.96891 21.6452 4.72876 21.7172 4.51612C21.7891 4.30348 21.8921 4.12293 22.0259 3.97446C22.1598 3.82599 22.3223 3.71233 22.5135 3.63357C22.7048 3.55481 22.9196 3.51543 23.158 3.51543C23.3965 3.51543 23.6108 3.55481 23.8009 3.63357C23.991 3.71233 24.1523 3.82599 24.2851 3.97446C24.4179 4.12293 24.5196 4.30348 24.5906 4.51612C24.6614 4.72876 24.6968 4.96891 24.6968 5.23667C24.6968 5.50442 24.6615 5.74458 24.5906 5.95722Z" fill="#BFCAF6"/>
<path d="M19.0479 2.79655V4.89578H16.76V2.79655H15.8455V7.67679H16.76V5.5438H19.0479V7.67679H19.9624V2.79655H19.0479Z" fill="#BFCAF6"/>
<path d="M34.8677 6.9275V2.79655H33.9599V7.67679H36.8215V6.9275H34.8677Z" fill="#BFCAF6"/>
<path d="M25.6687 2.79655V3.54241H27.1434V7.67679H28.0512V3.54241H29.519V2.79655H25.6687Z" fill="#BFCAF6"/>
<path d="M33.1737 3.51877V2.79655H30.0961V7.67679H33.1737V6.95114H31.0106V5.57079H32.7147V4.87213H31.0106V3.51877H33.1737Z" fill="#BFCAF6"/>
</g>
<defs>
<filter id="filter0_d" x="0.104492" y="0.176758" width="53" height="53" filterUnits="userSpaceOnUse" color-interpolation-filters="sRGB">
<feFlood flood-opacity="0" result="BackgroundImageFix"/>
<feColorMatrix in="SourceAlpha" type="matrix" values="0 0 0 0 0 0 0 0 0 0 0 0 0 0 0 0 0 0 127 0"/>
<feOffset dy="4"/>
<feGaussianBlur stdDeviation="2"/>
<feColorMatrix type="matrix" values="0 0 0 0 0 0 0 0 0 0 0 0 0 0 0 0 0 0 0.25 0"/>
<feBlend mode="normal" in2="BackgroundImageFix" result="effect1_dropShadow"/>
<feBlend mode="normal" in="SourceGraphic" in2="effect1_dropShadow" result="shape"/>
</filter>
</defs>
</svg>
