<svg width="45" height="46" viewBox="0 0 45 46" fill="none" xmlns="http://www.w3.org/2000/svg">
<path d="M17.8149 12.2215C17.8149 14.8602 18.8466 17.9056 20.5745 20.3682C22.5362 23.1637 25.0166 24.7032 27.5588 24.7032C30.1009 24.7032 32.5814 23.1637 34.5431 20.3681C36.271 17.9056 37.3027 14.8601 37.3027 12.2215C37.3027 6.84872 32.9316 2.47768 27.5588 2.47768C22.186 2.47768 17.8149 6.84872 17.8149 12.2215ZM27.5588 4.16987C31.9985 4.16987 35.6105 7.7819 35.6105 12.2215C35.6105 14.4911 34.6708 17.2402 33.1579 19.3962C31.5459 21.6935 29.5051 23.011 27.5588 23.011C25.6126 23.011 23.5718 21.6935 21.9597 19.3962C20.4469 17.2403 19.5071 14.4912 19.5071 12.2215C19.5071 7.78179 23.1191 4.16987 27.5588 4.16987Z" fill="#BFCAF6"/>
<path d="M34.8296 22.8138C34.5067 22.6601 34.1219 22.7261 33.8684 22.9786C31.976 24.8658 29.794 25.8631 27.5583 25.8631C25.3222 25.8631 23.1408 24.8658 21.2495 22.9789C20.9961 22.7261 20.6111 22.6601 20.2882 22.8138C17.4392 24.1701 15.028 26.2917 13.3151 28.9495C11.5557 31.6795 10.6257 34.847 10.6257 38.1093V38.1229C10.6257 38.3616 10.7265 38.5893 10.9033 38.7497C15.4713 42.8924 21.3861 45.1738 27.5582 45.1738C33.7302 45.1738 39.645 42.8923 44.2129 38.7497C44.3898 38.5893 44.4906 38.3618 44.4906 38.1229V38.1093C44.4906 34.847 43.5608 31.6795 41.8019 28.9496C40.0895 26.2916 37.6785 24.1699 34.8296 22.8138ZM27.5584 43.4816C21.9334 43.4816 16.5383 41.4484 12.3223 37.7477C12.388 34.9391 13.2198 32.2215 14.7377 29.8661C16.175 27.6358 18.1584 25.8248 20.4977 24.6004C22.6125 26.536 25.0423 27.5553 27.5584 27.5553C30.0741 27.5553 32.5043 26.5361 34.6202 24.6004C36.9593 25.8248 38.9424 27.6358 40.3796 29.8661C41.8972 32.2213 42.7287 34.939 42.7945 37.7477C38.5784 41.4484 33.1832 43.4816 27.5584 43.4816Z" fill="#BFCAF6"/>
<path d="M15.4395 19.5768C16.3341 19.5768 17.2266 19.3586 18.0924 18.9283C18.5108 18.7204 18.6815 18.2125 18.4736 17.7941C18.2657 17.3756 17.7578 17.205 17.3394 17.4129C16.7097 17.7259 16.0705 17.8845 15.4395 17.8845C13.7991 17.8845 12.0736 16.7661 10.7054 14.816C9.41385 12.9751 8.61141 10.6293 8.61141 8.6941C8.61141 4.92899 11.6745 1.8659 15.4395 1.8659C17.2165 1.8659 18.8995 2.54526 20.1783 3.77898C20.5145 4.10331 21.0502 4.09395 21.3746 3.75754C21.699 3.42125 21.6894 2.88561 21.3531 2.56128C19.7573 1.02173 17.6571 0.173828 15.4395 0.173828C10.7413 0.173828 6.91923 3.99603 6.91923 8.69422C6.91923 10.9933 7.81687 13.6452 9.32021 15.788C11.0344 18.2312 13.2076 19.5768 15.4395 19.5768Z" fill="#BFCAF6"/>
<path d="M7.60366 34.2052C5.71371 33.3905 3.97008 32.2905 2.41553 30.9332C2.48118 28.5515 3.19111 26.2481 4.47898 24.2498C5.69295 22.3661 7.36258 20.8323 9.33104 19.7863C11.163 21.4403 13.2632 22.3106 15.4386 22.3106C16.7458 22.3106 18.0298 21.9964 19.2549 21.3768C19.6719 21.1659 19.839 20.657 19.6281 20.2399C19.4173 19.8228 18.9083 19.6559 18.4912 19.8667C17.505 20.3655 16.4779 20.6184 15.4386 20.6184C13.5421 20.6184 11.6889 19.7698 10.0796 18.1643C9.82618 17.9116 9.44126 17.8456 9.11828 17.9993C6.64159 19.1783 4.54554 21.0227 3.05653 23.3331C1.52679 25.7068 0.718262 28.4605 0.718262 31.2968V31.3084C0.718262 31.5471 0.819116 31.7747 0.995893 31.9352C2.75904 33.5342 4.75684 34.8208 6.93367 35.7592C7.04287 35.8062 7.15647 35.8285 7.26827 35.8285C7.59587 35.8285 7.90769 35.6371 8.04566 35.3172C8.23056 34.888 8.03268 34.3902 7.60366 34.2052Z" fill="#BFCAF6"/>
<path d="M8.59866 35.4303C8.29734 36.1572 9.10993 36.8779 9.7964 36.4893C10.1617 36.2824 10.3247 35.8195 10.1604 35.4305C9.8889 34.7373 8.87686 34.7591 8.59866 35.4303Z" fill="#BFCAF6"/>
<path d="M10.1604 35.4305C10.1401 35.3787 10.1819 35.4813 10.1604 35.4305Z" fill="#BFCAF6"/>
</svg>
