<svg width="39" height="46" viewBox="0 0 39 46" fill="none" xmlns="http://www.w3.org/2000/svg">
<path d="M37.8888 22.8779H36.3496V20.5923C36.3496 20.2058 36.0364 19.8926 35.6499 19.8926C35.2634 19.8926 34.9502 20.2058 34.9502 20.5923V22.8779H22.1698V10.0974H34.9503V16.8606C34.9503 17.2471 35.2634 17.5603 35.65 17.5603C36.0364 17.5603 36.3497 17.2472 36.3497 16.8606V9.3977C36.3497 9.01124 36.0365 8.698 35.65 8.698H35.4588L37.0589 3.96748C37.1811 3.60616 36.9809 3.20248 36.6204 3.08049L28.1369 0.210954C27.7707 0.087029 27.3738 0.283464 27.2499 0.649527L24.5954 8.49691L24.3988 4.14203C24.3815 3.76023 24.0492 3.45965 23.6683 3.47468L16.4197 3.80189L15.8865 1.758C15.789 1.3842 15.4073 1.15973 15.0329 1.25773L6.36727 3.51836C5.99338 3.61583 5.76935 3.99806 5.867 4.37195L6.99551 8.69809H6.54393C6.15747 8.69809 5.84423 9.01124 5.84423 9.39779V22.8779H1.31981C0.933359 22.8779 0.620117 23.191 0.620117 23.5776V28.0554C0.620117 28.4419 0.933271 28.7551 1.31981 28.7551H2.85904V44.4741C2.85904 44.8606 3.17219 45.1738 3.55873 45.1738H35.6499C36.0363 45.1738 36.3496 44.8607 36.3496 44.4741V28.755H37.8888C38.2753 28.755 38.5885 28.4419 38.5885 28.0553V23.5775C38.5885 23.1911 38.2753 22.8779 37.8888 22.8779ZM28.3512 1.76073L35.5091 4.18193L33.9815 8.69809H26.0045L28.3512 1.76073ZM23.0325 4.90413L23.2038 8.69809H15.6398L15.4839 5.24496L23.0325 4.90413ZM14.7091 2.78834L14.9905 3.86658C14.8311 3.87379 14.6612 3.86561 14.5098 3.92186C14.228 4.02654 14.0408 4.30867 14.0543 4.60908L14.239 8.69809H8.44166L7.39761 4.69582L14.7091 2.78834ZM7.24362 16.0678H14.8V19.1463H7.24362V16.0678ZM20.7705 27.3557H13.6339C13.2474 27.3557 12.9342 27.6689 12.9342 28.0554C12.9342 28.4419 13.2473 28.7551 13.6339 28.7551H20.7704V43.7745H4.25843V39.9497H15.4996C15.8861 39.9497 16.1993 39.6366 16.1993 39.25V34.7722C16.1993 34.3857 15.8861 34.0725 15.4996 34.0725H4.25843V28.755H9.9024C10.2888 28.755 10.6021 28.4419 10.6021 28.0553C10.6021 27.6689 10.2889 27.3556 9.9024 27.3556H2.01951V24.2771H20.7704L20.7705 27.3557ZM4.25843 38.5502V35.4717H14.8V38.5502H4.25843ZM20.7705 22.8779H7.24362V20.5457H15.4996C15.8861 20.5457 16.1993 20.2326 16.1993 19.846V15.3682C16.1993 14.9817 15.8861 14.6685 15.4996 14.6685H7.24362V10.0974H20.7704L20.7705 22.8779ZM34.9503 43.7744H22.1698V28.755H34.9503V43.7744ZM37.1892 27.3557H22.1698V24.2772H37.1892V27.3557Z" fill="url(#paint0_linear)"/>
<path d="M32.6647 30.3409H24.4554C24.0689 30.3409 23.7557 30.6541 23.7557 31.0406V33.2795C23.7557 34.4884 24.7392 35.4718 25.9479 35.4718H31.1721C32.3809 35.4718 33.3643 34.4884 33.3643 33.2795V31.0406C33.3644 30.6541 33.0512 30.3409 32.6647 30.3409ZM31.965 33.2794C31.965 33.7167 31.6093 34.0724 31.1721 34.0724H25.9479C25.5107 34.0724 25.155 33.7167 25.155 33.2794V31.7402H31.965V33.2794Z" fill="url(#paint1_linear)"/>
<path d="M32.6647 11.6833H24.4554C24.0689 11.6833 23.7557 11.9964 23.7557 12.3829V14.6219C23.7557 15.8307 24.7391 16.8141 25.9479 16.8141H31.1721C32.3809 16.8141 33.3643 15.8307 33.3643 14.6219V12.3829C33.3644 11.9964 33.0512 11.6833 32.6647 11.6833ZM31.965 14.6218C31.965 15.059 31.6093 15.4147 31.1721 15.4147H25.9479C25.5107 15.4147 25.155 15.059 25.155 14.6218V13.0826H31.965V14.6218Z" fill="url(#paint2_linear)"/>
<path d="M12.5144 11.6833H8.78288C8.39643 11.6833 8.08318 11.9964 8.08318 12.3829C8.08318 12.7694 8.39634 13.0826 8.78288 13.0826H12.5144C12.9009 13.0826 13.2141 12.7695 13.2141 12.3829C13.2141 11.9964 12.9009 11.6833 12.5144 11.6833Z" fill="url(#paint3_linear)"/>
<path d="M11.0219 31.0872H6.54402C6.15756 31.0872 5.84432 31.4003 5.84432 31.7869C5.84432 32.1733 6.15747 32.4866 6.54402 32.4866H11.0219C11.4083 32.4866 11.7216 32.1734 11.7216 31.7869C11.7215 31.4003 11.4082 31.0872 11.0219 31.0872Z" fill="url(#paint4_linear)"/>
<path d="M15.4997 31.0872H13.2608C12.8743 31.0872 12.5611 31.4003 12.5611 31.7869C12.5611 32.1733 12.8742 32.4866 13.2608 32.4866H15.4997C15.8861 32.4866 16.1994 32.1734 16.1994 31.7869C16.1993 31.4003 15.8861 31.0872 15.4997 31.0872Z" fill="url(#paint5_linear)"/>
<defs>
<linearGradient id="paint0_linear" x1="0.620117" y1="0.173828" x2="48.1027" y2="30.0556" gradientUnits="userSpaceOnUse">
<stop stop-color="#95AAEC"/>
<stop offset="0.9999" stop-color="#E1E4FF"/>
</linearGradient>
<linearGradient id="paint1_linear" x1="0.620117" y1="0.173828" x2="48.1027" y2="30.0556" gradientUnits="userSpaceOnUse">
<stop stop-color="#95AAEC"/>
<stop offset="0.9999" stop-color="#E1E4FF"/>
</linearGradient>
<linearGradient id="paint2_linear" x1="0.620117" y1="0.173828" x2="48.1027" y2="30.0556" gradientUnits="userSpaceOnUse">
<stop stop-color="#95AAEC"/>
<stop offset="0.9999" stop-color="#E1E4FF"/>
</linearGradient>
<linearGradient id="paint3_linear" x1="0.620117" y1="0.173828" x2="48.1027" y2="30.0556" gradientUnits="userSpaceOnUse">
<stop stop-color="#95AAEC"/>
<stop offset="0.9999" stop-color="#E1E4FF"/>
</linearGradient>
<linearGradient id="paint4_linear" x1="0.620117" y1="0.173828" x2="48.1027" y2="30.0556" gradientUnits="userSpaceOnUse">
<stop stop-color="#95AAEC"/>
<stop offset="0.9999" stop-color="#E1E4FF"/>
</linearGradient>
<linearGradient id="paint5_linear" x1="0.620117" y1="0.173828" x2="48.1027" y2="30.0556" gradientUnits="userSpaceOnUse">
<stop stop-color="#95AAEC"/>
<stop offset="0.9999" stop-color="#E1E4FF"/>
</linearGradient>
</defs>
</svg>
