%YAML 1.1
%TAG !u! tag:unity3d.com,2011:
--- !u!114 &11400000
MonoBehaviour:
  m_ObjectHideFlags: 0
  m_CorrespondingSourceObject: {fileID: 0}
  m_PrefabInstance: {fileID: 0}
  m_PrefabAsset: {fileID: 0}
  m_GameObject: {fileID: 0}
  m_Enabled: 1
  m_EditorHideFlags: 0
  m_Script: {fileID: 11500000, guid: ca5760982ea04605b08da46eae23b81f, type: 3}
  m_Name: HRData
  m_EditorClassIdentifier: 
  Employees:
  - BuildingId: 10
    Employee1:
      EmployeePosition: "\u0420\u0443\u043A\u043E\u0432\u043E\u0434\u0438\u0442\u0435\u043B\u044C
        \u0443\u043F\u0440\u0430\u0432\u043B\u0435\u043D\u0438\u044F \u043C\u0430\u0440\u043A\u0435\u0442\u0438\u043D\u0433\u0430
        \u0432 \u0434\u044C\u044E\u0442\u0438 \u0444\u0440\u0438"
      EmployeeDescription: "\u0427\u0435\u043B\u043E\u0432\u0435\u043A, \u043A\u043E\u0442\u043E\u0440\u044B\u0439
        \u0437\u0430\u043D\u0438\u043C\u0430\u0435\u0442\u0441\u044F \u043F\u043B\u0430\u043D\u0438\u0440\u043E\u0432\u0430\u043D\u0438\u0435\u043C
        \u043C\u0430\u0440\u043A\u0435\u0442\u0438\u043D\u0433\u043E\u0432\u044B\u0445
        \u0430\u043A\u0446\u0438\u0439. \u0417\u0430\u043A\u043B\u044E\u0447\u0435\u043D\u0438\u0435
        \u0434\u043E\u0433\u043E\u0432\u043E\u0440\u043E\u0432 \u0441 \u043F\u043E\u0441\u0442\u0430\u0432\u0449\u0438\u043A\u0430\u043C\u0438,
        \u0432\u044B\u0431\u043E\u0440 \u043A\u043E\u043D\u0442\u0440\u0430\u0433\u0435\u043D\u0442\u043E\u0432"
      Competencies: 130000000b000000120000000c0000001a000000
    Employee2:
      EmployeePosition: "\u0410\u0433\u0435\u043D\u0442 \u0421\u041E\u041F( \u0441\u043B\u0443\u0436\u0431\u0430
        \u043E\u0440\u0433\u0430\u043D\u0438\u0437\u0430\u0446\u0438\u0438 \u043F\u0435\u0440\u0435\u0432\u043E\u0437\u043E\u043A)"
      EmployeeDescription: "\u0440\u0435\u0433\u0438\u0441\u0442\u0440\u0430\u0446\u0438\u044F
        \u043D\u0430 \u0440\u0435\u0439\u0441, \u043E\u0442\u0432\u0435\u0442\u044B
        \u043D\u0430 \u0432\u043E\u043F\u0440\u043E\u0441\u044B, \u043E\u0444\u043E\u0440\u043C\u043B\u0435\u043D\u0438\u0435
        \u0431\u0430\u0433\u0430\u0436\u0430, \u0438\u043D\u0444\u043E\u0440\u043C\u0438\u0440\u0443\u0435\u0442
        \u043F\u043E \u0433\u0440\u043E\u043C\u043A\u043E\u0439 \u0441\u0432\u044F\u0437\u0438 "
      Competencies: 1300000006000000110000001f0000000b000000
  - BuildingId: 2
    Employee1:
      EmployeePosition: "\u0423\u043F\u0440\u0430\u0432\u043B\u044F\u044E\u0449\u0438\u0439
        \u043F\u043E \u0440\u0430\u0431\u043E\u0442\u0435 \u0433\u043E\u0440\u043D\u0438\u0447\u043D\u044B\u0445"
      EmployeeDescription: "\u0427\u0435\u043B\u043E\u0432\u0435\u043A, \u043A\u043E\u0442\u043E\u0440\u044B\u0439
        \u0437\u0430\u043A\u043B\u044E\u0447\u0430\u0435\u0442 \u0434\u043E\u0433\u043E\u0432\u043E\u0440\u044B
        \u0441 \u043F\u043E\u0434\u0440\u044F\u0434\u0447\u0438\u043A\u0430\u043C\u0438
        \u043D\u0430 \u043F\u043E\u0441\u0442\u0430\u0432\u043A\u0443 \u043C\u0435\u0431\u0435\u043B\u0438,
        \u0432\u044B\u0431\u0438\u0440\u0430\u0435\u0442 \u043C\u0435\u0431\u0435\u043B\u044C,
        \u043F\u043E\u043A\u0443\u043F\u0430\u0435\u0442 \u0441\u0440\u0435\u0434\u0441\u0442\u0432\u0430
        \u0434\u043B\u044F \u0443\u0431\u043E\u0440\u043A\u0438, \u0441\u043B\u0435\u0434\u0438\u0442
        \u0437\u0430 \u043A\u0430\u0447\u0435\u0441\u0442\u0432\u043E\u043C \u0443\u0431\u043E\u0440\u043A\u0438
        \u0438 \u043E\u0440\u0433\u0430\u043D\u0438\u0437\u0443\u0435\u0442 \u0440\u0430\u0431\u043E\u0442\u044B
        \u0448\u0442\u0430\u0442\u0430 \u0433\u043E\u0440\u043D\u0438\u0447\u043D\u044B\u0445 "
      Competencies: 170000000b000000190000000a00000008000000
    Employee2:
      EmployeePosition: "\u041E\u0444\u0438\u0446\u0438\u0430\u043D\u0442"
      EmployeeDescription: 
      Competencies: 0a00000008000000130000001e00000001000000
  - BuildingId: 1
    Employee1:
      EmployeePosition: "\u0423\u043F\u0440\u0430\u0432\u043B\u044F\u044E\u0449\u0438\u0439
        \u043F\u043E \u0440\u0430\u0431\u043E\u0442\u0435 \u0433\u043E\u0440\u043D\u0438\u0447\u043D\u044B\u0445"
      EmployeeDescription: "\u0427\u0435\u043B\u043E\u0432\u0435\u043A, \u043A\u043E\u0442\u043E\u0440\u044B\u0439
        \u0437\u0430\u043A\u043B\u044E\u0447\u0430\u0435\u0442 \u0434\u043E\u0433\u043E\u0432\u043E\u0440\u044B
        \u0441 \u043F\u043E\u0434\u0440\u044F\u0434\u0447\u0438\u043A\u0430\u043C\u0438
        \u043D\u0430 \u043F\u043E\u0441\u0442\u0430\u0432\u043A\u0443 \u043C\u0435\u0431\u0435\u043B\u0438,
        \u0432\u044B\u0431\u0438\u0440\u0430\u0435\u0442 \u043C\u0435\u0431\u0435\u043B\u044C,
        \u043F\u043E\u043A\u0443\u043F\u0430\u0435\u0442 \u0441\u0440\u0435\u0434\u0441\u0442\u0432\u0430
        \u0434\u043B\u044F \u0443\u0431\u043E\u0440\u043A\u0438, \u0441\u043B\u0435\u0434\u0438\u0442
        \u0437\u0430 \u043A\u0430\u0447\u0435\u0441\u0442\u0432\u043E\u043C \u0443\u0431\u043E\u0440\u043A\u0438
        \u0438 \u043E\u0440\u0433\u0430\u043D\u0438\u0437\u0443\u0435\u0442 \u0440\u0430\u0431\u043E\u0442\u044B
        \u0448\u0442\u0430\u0442\u0430 \u0433\u043E\u0440\u043D\u0438\u0447\u043D\u044B\u0445 "
      Competencies: 170000000b000000190000000a00000008000000
    Employee2:
      EmployeePosition: "\u041E\u0444\u0438\u0446\u0438\u0430\u043D\u0442"
      EmployeeDescription: 
      Competencies: 0a00000008000000130000001e00000001000000
  - BuildingId: 3
    Employee1:
      EmployeePosition: "\u0412\u0435\u0434\u0443\u0449\u0438\u0439 \u0438\u043D\u0436\u0435\u043D\u0435\u0440
        \u043F\u043E \u0442\u0435\u0445\u043D\u0438\u0447\u0435\u0441\u043A\u043E\u043C\u0443
        \u043E\u0431\u0441\u043B\u0443\u0436\u0438\u0432\u0430\u043D\u0438\u044E \u0437\u0434\u0430\u043D\u0438\u0439
        \u0438 \u0441\u043E\u043E\u0440\u0443\u0436\u0435\u043D\u0438\u0438"
      EmployeeDescription: "\u041E\u0441\u043C\u0430\u0442\u0440\u0438\u0432\u0430\u0435\u0442
        \u0442\u0435\u0445 \u0441\u043E\u0441\u0442\u043E\u044F\u043D\u0438\u0435
        \u0433\u043E\u0440\u043E\u043A \u0438 \u0441\u043E\u043E\u0440\u0443\u0436\u0435\u043D\u0438\u0439,
        \u0434\u0430\u0435\u0442 \u0440\u0430\u0437\u0440\u0435\u0448\u0435\u043D\u0438\u0435
        \u043D\u0430 \u044D\u043A\u0441\u043F\u043B\u0443\u0430\u0442\u0430\u0446\u0438\u044E,
        \u043E\u0441\u0443\u0449\u0435\u0441\u0442\u0432\u043B\u044F\u0435\u0442 \u0441\u043E\u0441\u0442\u0430\u0432\u043B\u0435\u043D\u0438\u0435
        \u0430\u043A\u0442\u043E\u0432 \u043E \u0434\u0435\u0444\u0435\u043A\u0442\u0430\u0445,
        \u0437\u0430\u043A\u0443\u043F\u0430\u0435\u0442 \u043A\u043E\u043C\u043F\u043B\u0435\u043A\u0442\u0443\u044E\u0449\u0438\u0435 "
      Competencies: 0300000015000000000000001600000011000000
    Employee2:
      EmployeePosition: "\u0418\u043D\u0441\u0442\u0440\u0443\u043A\u0442\u043E\u0440-\u0441\u043F\u0430\u0441\u0430\u0442\u0435\u043B\u044C"
      EmployeeDescription: 
      Competencies: 1800000004000000140000001100000001000000
  - BuildingId: 11
    Employee1:
      EmployeePosition: "\u041C\u0435\u043D\u0435\u0434\u0436\u0435\u0440 \u043F\u043E
        \u0440\u0430\u0431\u043E\u0442\u0435 \u0441 \u0430\u0440\u0435\u043D\u0434\u043E\u0434\u0430\u0442\u0435\u043B\u044F\u043C\u0438
        \u0422\u0426"
      EmployeeDescription: "\u041E\u0441\u0443\u0449\u0435\u0441\u0442\u0432\u043B\u044F\u0435\u0442
        \u043F\u043E\u0438\u0441\u043A \u0430\u0440\u0435\u043D\u0434\u043E\u0434\u0430\u0442\u0435\u043B\u0435\u0439,
        \u0434\u043E\u043F\u0440\u043E\u0434\u0430\u0435\u0442 \u0443\u0441\u043B\u0443\u0433\u0438
        \u0422\u0426 \u0441\u0443\u0449\u0435\u0441\u0442\u0432\u0443\u044E\u0449\u0438\u043C
        \u0430\u0440\u0435\u043D\u0434\u043E\u0434\u0430\u0442\u0435\u043B\u044F\u043C "
      Competencies: 0e00000016000000100000001d00000007000000
    Employee2:
      EmployeePosition: "\u0421\u043E\u0442\u0440\u0443\u0434\u043D\u0438\u043A \u043F\u043E
        \u041F\u0411 (\u043F\u043E\u0436\u0430\u0440\u043D\u043E\u0439 \u0431\u0435\u0437\u043E\u043F\u0430\u0441\u043D\u043E\u0441\u0442\u0438)"
      EmployeeDescription: 
      Competencies: 050000000900000011000000140000000b000000
  - BuildingId: 12
    Employee1:
      EmployeePosition: "\u0414\u0440\u0435\u0441\u0441\u0438\u0440\u043E\u0432\u0449\u0438\u043A
        \u0436\u0438\u0432\u043E\u0442\u043D\u044B\u0445"
      EmployeeDescription: "\u0420\u0430\u0437\u0440\u0430\u0431\u0430\u0442\u044B\u0432\u0430\u0435\u0442
        \u0438\u043D\u0434\u0438\u0432\u0438\u0434\u0443\u0430\u043B\u044C\u043D\u044B\u0435
        \u043F\u0440\u043E\u0433\u0440\u0430\u043C\u043C\u044B \u0438 \u043F\u043E\u0441\u0442\u0430\u043D\u043E\u0432\u043A\u0443
        \u0448\u043E\u0443 "
      Competencies: 1b0000000c0000001a0000001800000004000000
    Employee2:
      EmployeePosition: "\u041C\u0430\u0440\u043A\u0435\u0442\u043E\u043B\u043E\u0433/PR"
      EmployeeDescription: 
      Competencies: 0c000000140000001a0000001c00000020000000
