%YAML 1.1
%TAG !u! tag:unity3d.com,2011:
--- !u!114 &11400000
MonoBehaviour:
  m_ObjectHideFlags: 0
  m_CorrespondingSourceObject: {fileID: 0}
  m_PrefabInstance: {fileID: 0}
  m_PrefabAsset: {fileID: 0}
  m_GameObject: {fileID: 0}
  m_Enabled: 1
  m_EditorHideFlags: 0
  m_Script: {fileID: 11500000, guid: de21c49004345e0429cf22753adfd655, type: 3}
  m_Name: Materials
  m_EditorClassIdentifier: 
  Materials:
  - Icon: {fileID: 21300000, guid: 7f66f8d2930b5eb4bbe17efa76edd5ea, type: 3}
    Id: 0
    Name: "\u0411\u043B\u043E\u043A \u0410"
    Size: "820\u0445620"
    Weight: 40
    Price: 1237
    OneQuantity: 0
  - Icon: {fileID: 21300000, guid: 973a0fbf855829141a600749dcc9f0e0, type: 3}
    Id: 1
    Name: "\u0411\u043B\u043E\u043A B"
    Size: "600\u0445300"
    Weight: 27
    Price: 591
    OneQuantity: 0
  - Icon: {fileID: 21300000, guid: a265eff6380a710499818c58d685fc56, type: 3}
    Id: 2
    Name: "\u0411\u043B\u043E\u043A C"
    Size: "1600\u04451000"
    Weight: 30
    Price: 2176
    OneQuantity: 0
  - Icon: {fileID: 21300000, guid: a0a23fcb58bf5754ab9a6070522fa044, type: 3}
    Id: 3
    Name: "\u0411\u043B\u043E\u043A D"
    Size: "1000\u0445600"
    Weight: 30
    Price: 127
    OneQuantity: 0
  - Icon: {fileID: 21300000, guid: c22140784e2020c4ea7928e2e47f389f, type: 3}
    Id: 4
    Name: "\u0411\u043B\u043E\u043A E"
    Size: "600\u0445250"
    Weight: 25
    Price: 157
    OneQuantity: 0
  - Icon: {fileID: 21300000, guid: e022718658fb6fc4d8cb96e77d18e8de, type: 3}
    Id: 5
    Name: "\u0411\u043B\u043E\u043A r"
    Size: "600\u0445250"
    Weight: 25
    Price: 72
    OneQuantity: 0
  - Icon: {fileID: 21300000, guid: e022718658fb6fc4d8cb96e77d18e8de, type: 3}
    Id: 6
    Name: "\u0411\u043B\u043E\u043A r"
    Size: "600\u0445250"
    Weight: 25
    Price: 72
    OneQuantity: 0
  - Icon: {fileID: 21300000, guid: e022718658fb6fc4d8cb96e77d18e8de, type: 3}
    Id: 7
    Name: "\u0411\u043B\u043E\u043A r"
    Size: "600\u0445250"
    Weight: 25
    Price: 72
    OneQuantity: 0
  - Icon: {fileID: 21300000, guid: e022718658fb6fc4d8cb96e77d18e8de, type: 3}
    Id: 8
    Name: "\u0411\u043B\u043E\u043A r"
    Size: "600\u0445250"
    Weight: 25
    Price: 72
    OneQuantity: 0
  - Icon: {fileID: 21300000, guid: 78f8d38bd107dd342b11370203a3acf0, type: 3}
    Id: 9
    Name: "\u0413\u043E\u0440\u043A\u0430 1"
    Size: "600\u0445250"
    Weight: 50000
    Price: 1000000
    OneQuantity: 1
  - Icon: {fileID: 21300000, guid: c5f2bfc621f4a7345933d82f8e34bb3d, type: 3}
    Id: 10
    Name: "\u0413\u043E\u0440\u043A\u0430 2"
    Size: "600\u0445250"
    Weight: 50000
    Price: 1000000
    OneQuantity: 1
  - Icon: {fileID: 21300000, guid: 79396bdac6c25cf4dabc1e2456f1977c, type: 3}
    Id: 11
    Name: "\u0413\u043E\u0440\u043A\u0430 3"
    Size: "600\u0445250"
    Weight: 50000
    Price: 1000000
    OneQuantity: 0
  - Icon: {fileID: 21300000, guid: c5f2bfc621f4a7345933d82f8e34bb3d, type: 3}
    Id: 12
    Name: "\u0413\u043E\u0440\u043A\u0430 4"
    Size: "600\u0445250"
    Weight: 50000
    Price: 1000000
    OneQuantity: 1
  - Icon: {fileID: 21300000, guid: c5f2bfc621f4a7345933d82f8e34bb3d, type: 3}
    Id: 13
    Name: "\u0413\u043E\u0440\u043A\u0430 5"
    Size: "600\u0445250"
    Weight: 50000
    Price: 1000000
    OneQuantity: 0
  - Icon: {fileID: 21300000, guid: 174909b557eed81459b8cafbe7e34d10, type: 3}
    Id: 14
    Name: "\u0412\u043E\u043B\u043D\u043E\u0440\u0435\u0437 \u0434\u043B\u044F \u043E\u0441\u0442\u0440\u043E\u0432\u0430"
    Size: "600\u0445250"
    Weight: 2500000
    Price: 20000000
    OneQuantity: 1
  - Icon: {fileID: 21300000, guid: 174909b557eed81459b8cafbe7e34d10, type: 3}
    Id: 15
    Name: "\u0412\u043E\u043B\u043D\u043E\u0440\u0435\u0437 \u043D\u0430 \u0432\u0441\u0435
      \u043E\u0441\u0442\u0440\u043E\u0432\u0430"
    Size: "600\u0445250"
    Weight: 5500000
    Price: 30000000
    OneQuantity: 1
