%YAML 1.1
%TAG !u! tag:unity3d.com,2011:
--- !u!1 &831310341200116606
GameObject:
  m_ObjectHideFlags: 0
  m_CorrespondingSourceObject: {fileID: 0}
  m_PrefabInstance: {fileID: 0}
  m_PrefabAsset: {fileID: 0}
  serializedVersion: 6
  m_Component:
  - component: {fileID: 4357274491964212724}
  - component: {fileID: 5399463291842503145}
  - component: {fileID: 6718626680435601256}
  m_Layer: 0
  m_Name: Sphere.004
  m_TagString: Untagged
  m_Icon: {fileID: 0}
  m_NavMeshLayer: 0
  m_StaticEditorFlags: 0
  m_IsActive: 1
--- !u!4 &4357274491964212724
Transform:
  m_ObjectHideFlags: 0
  m_CorrespondingSourceObject: {fileID: 0}
  m_PrefabInstance: {fileID: 0}
  m_PrefabAsset: {fileID: 0}
  m_GameObject: {fileID: 831310341200116606}
  m_LocalRotation: {x: -0, y: -0, z: 0, w: 1}
  m_LocalPosition: {x: -4.2535033, y: 0.475, z: 3.7639694}
  m_LocalScale: {x: 0.84999996, y: 1, z: 1}
  m_Children: []
  m_Father: {fileID: 3205177161928467737}
  m_RootOrder: 6
  m_LocalEulerAnglesHint: {x: 0, y: 0, z: 0}
--- !u!33 &5399463291842503145
MeshFilter:
  m_ObjectHideFlags: 0
  m_CorrespondingSourceObject: {fileID: 0}
  m_PrefabInstance: {fileID: 0}
  m_PrefabAsset: {fileID: 0}
  m_GameObject: {fileID: 831310341200116606}
  m_Mesh: {fileID: 4300000, guid: 844f9d8c39f5ca641b9b8124771cba14, type: 2}
--- !u!23 &6718626680435601256
MeshRenderer:
  m_ObjectHideFlags: 0
  m_CorrespondingSourceObject: {fileID: 0}
  m_PrefabInstance: {fileID: 0}
  m_PrefabAsset: {fileID: 0}
  m_GameObject: {fileID: 831310341200116606}
  m_Enabled: 1
  m_CastShadows: 0
  m_ReceiveShadows: 0
  m_DynamicOccludee: 1
  m_MotionVectors: 1
  m_LightProbeUsage: 1
  m_ReflectionProbeUsage: 1
  m_RenderingLayerMask: 1
  m_RendererPriority: 0
  m_Materials:
  - {fileID: 2100000, guid: 1d2d902d68d621b49a0a64b0b16be7df, type: 2}
  m_StaticBatchInfo:
    firstSubMesh: 0
    subMeshCount: 0
  m_StaticBatchRoot: {fileID: 0}
  m_ProbeAnchor: {fileID: 0}
  m_LightProbeVolumeOverride: {fileID: 0}
  m_ScaleInLightmap: 1
  m_ReceiveGI: 1
  m_PreserveUVs: 0
  m_IgnoreNormalsForChartDetection: 0
  m_ImportantGI: 0
  m_StitchLightmapSeams: 1
  m_SelectedEditorRenderState: 3
  m_MinimumChartSize: 4
  m_AutoUVMaxDistance: 0.5
  m_AutoUVMaxAngle: 89
  m_LightmapParameters: {fileID: 0}
  m_SortingLayerID: 0
  m_SortingLayer: 0
  m_SortingOrder: 0
--- !u!1 &1639840707072238256
GameObject:
  m_ObjectHideFlags: 0
  m_CorrespondingSourceObject: {fileID: 0}
  m_PrefabInstance: {fileID: 0}
  m_PrefabAsset: {fileID: 0}
  serializedVersion: 6
  m_Component:
  - component: {fileID: 3205177161928467737}
  - component: {fileID: 4268209249426496967}
  m_Layer: 0
  m_Name: stroika kotlovan
  m_TagString: Untagged
  m_Icon: {fileID: 0}
  m_NavMeshLayer: 0
  m_StaticEditorFlags: 0
  m_IsActive: 1
--- !u!4 &3205177161928467737
Transform:
  m_ObjectHideFlags: 0
  m_CorrespondingSourceObject: {fileID: 0}
  m_PrefabInstance: {fileID: 0}
  m_PrefabAsset: {fileID: 0}
  m_GameObject: {fileID: 1639840707072238256}
  m_LocalRotation: {x: 0, y: 0, z: 0, w: 1}
  m_LocalPosition: {x: 0, y: 0, z: 0}
  m_LocalScale: {x: 16, y: 16, z: 16}
  m_Children:
  - {fileID: 8999800825228835092}
  - {fileID: 7589616119564376454}
  - {fileID: 8881538814817889826}
  - {fileID: 619094198629942784}
  - {fileID: 6100968283136398475}
  - {fileID: 8044853456036276593}
  - {fileID: 4357274491964212724}
  m_Father: {fileID: 0}
  m_RootOrder: 0
  m_LocalEulerAnglesHint: {x: 0, y: 0, z: 0}
--- !u!111 &4268209249426496967
Animation:
  m_ObjectHideFlags: 0
  m_CorrespondingSourceObject: {fileID: 0}
  m_PrefabInstance: {fileID: 0}
  m_PrefabAsset: {fileID: 0}
  m_GameObject: {fileID: 1639840707072238256}
  m_Enabled: 1
  serializedVersion: 3
  m_Animation: {fileID: -7438262689014391314}
  m_Animations:
  - {fileID: -7438262689014391314}
  m_WrapMode: 0
  m_PlayAutomatically: 1
  m_AnimatePhysics: 0
  m_CullingType: 0
--- !u!1 &3785885652784219456
GameObject:
  m_ObjectHideFlags: 0
  m_CorrespondingSourceObject: {fileID: 0}
  m_PrefabInstance: {fileID: 0}
  m_PrefabAsset: {fileID: 0}
  serializedVersion: 6
  m_Component:
  - component: {fileID: 8044853456036276593}
  - component: {fileID: 2316502230774453824}
  - component: {fileID: 3253865305844645812}
  m_Layer: 0
  m_Name: Sphere.002
  m_TagString: Untagged
  m_Icon: {fileID: 0}
  m_NavMeshLayer: 0
  m_StaticEditorFlags: 0
  m_IsActive: 1
--- !u!4 &8044853456036276593
Transform:
  m_ObjectHideFlags: 0
  m_CorrespondingSourceObject: {fileID: 0}
  m_PrefabInstance: {fileID: 0}
  m_PrefabAsset: {fileID: 0}
  m_GameObject: {fileID: 3785885652784219456}
  m_LocalRotation: {x: -0, y: -0.28379408, z: 0, w: 0.95888525}
  m_LocalPosition: {x: 2.990902, y: 0.575, z: 3.378154}
  m_LocalScale: {x: 0.5606301, y: 0.3107259, z: 0.46398064}
  m_Children: []
  m_Father: {fileID: 3205177161928467737}
  m_RootOrder: 5
  m_LocalEulerAnglesHint: {x: 0, y: 0, z: 0}
--- !u!33 &2316502230774453824
MeshFilter:
  m_ObjectHideFlags: 0
  m_CorrespondingSourceObject: {fileID: 0}
  m_PrefabInstance: {fileID: 0}
  m_PrefabAsset: {fileID: 0}
  m_GameObject: {fileID: 3785885652784219456}
  m_Mesh: {fileID: 4300000, guid: 9d91198494681f0459eb1fe0a1ee14e6, type: 2}
--- !u!23 &3253865305844645812
MeshRenderer:
  m_ObjectHideFlags: 0
  m_CorrespondingSourceObject: {fileID: 0}
  m_PrefabInstance: {fileID: 0}
  m_PrefabAsset: {fileID: 0}
  m_GameObject: {fileID: 3785885652784219456}
  m_Enabled: 1
  m_CastShadows: 0
  m_ReceiveShadows: 0
  m_DynamicOccludee: 1
  m_MotionVectors: 1
  m_LightProbeUsage: 1
  m_ReflectionProbeUsage: 1
  m_RenderingLayerMask: 1
  m_RendererPriority: 0
  m_Materials:
  - {fileID: 2100000, guid: 1d2d902d68d621b49a0a64b0b16be7df, type: 2}
  m_StaticBatchInfo:
    firstSubMesh: 0
    subMeshCount: 0
  m_StaticBatchRoot: {fileID: 0}
  m_ProbeAnchor: {fileID: 0}
  m_LightProbeVolumeOverride: {fileID: 0}
  m_ScaleInLightmap: 1
  m_ReceiveGI: 1
  m_PreserveUVs: 0
  m_IgnoreNormalsForChartDetection: 0
  m_ImportantGI: 0
  m_StitchLightmapSeams: 1
  m_SelectedEditorRenderState: 3
  m_MinimumChartSize: 4
  m_AutoUVMaxDistance: 0.5
  m_AutoUVMaxAngle: 89
  m_LightmapParameters: {fileID: 0}
  m_SortingLayerID: 0
  m_SortingLayer: 0
  m_SortingOrder: 0
--- !u!1 &4578077498200652799
GameObject:
  m_ObjectHideFlags: 0
  m_CorrespondingSourceObject: {fileID: 0}
  m_PrefabInstance: {fileID: 0}
  m_PrefabAsset: {fileID: 0}
  serializedVersion: 6
  m_Component:
  - component: {fileID: 8999800825228835092}
  - component: {fileID: 2211880696210327404}
  - component: {fileID: 9125622448190979869}
  m_Layer: 0
  m_Name: Bulldozer
  m_TagString: Untagged
  m_Icon: {fileID: 0}
  m_NavMeshLayer: 0
  m_StaticEditorFlags: 0
  m_IsActive: 1
--- !u!4 &8999800825228835092
Transform:
  m_ObjectHideFlags: 0
  m_CorrespondingSourceObject: {fileID: 0}
  m_PrefabInstance: {fileID: 0}
  m_PrefabAsset: {fileID: 0}
  m_GameObject: {fileID: 4578077498200652799}
  m_LocalRotation: {x: -0.7054676, y: 0.048119996, z: 0.04812, w: 0.7054675}
  m_LocalPosition: {x: 3.188603, y: 0.403, z: 1.3391583}
  m_LocalScale: {x: 0.10753555, y: 0.10753555, z: 0.10753555}
  m_Children: []
  m_Father: {fileID: 3205177161928467737}
  m_RootOrder: 0
  m_LocalEulerAnglesHint: {x: 0, y: 0, z: 0}
--- !u!33 &2211880696210327404
MeshFilter:
  m_ObjectHideFlags: 0
  m_CorrespondingSourceObject: {fileID: 0}
  m_PrefabInstance: {fileID: 0}
  m_PrefabAsset: {fileID: 0}
  m_GameObject: {fileID: 4578077498200652799}
  m_Mesh: {fileID: 4300000, guid: 3a53abb0ff7af9049bfec259bc4fd7a5, type: 2}
--- !u!23 &9125622448190979869
MeshRenderer:
  m_ObjectHideFlags: 0
  m_CorrespondingSourceObject: {fileID: 0}
  m_PrefabInstance: {fileID: 0}
  m_PrefabAsset: {fileID: 0}
  m_GameObject: {fileID: 4578077498200652799}
  m_Enabled: 1
  m_CastShadows: 0
  m_ReceiveShadows: 0
  m_DynamicOccludee: 1
  m_MotionVectors: 1
  m_LightProbeUsage: 1
  m_ReflectionProbeUsage: 1
  m_RenderingLayerMask: 1
  m_RendererPriority: 0
  m_Materials:
  - {fileID: 2100000, guid: d94d07bc49e2dc94f831c8640f57feca, type: 2}
  - {fileID: 2100000, guid: 37cfa703565ddd4439af166b390d4552, type: 2}
  - {fileID: 2100000, guid: 862c925a94214e1439a82f4d2a6a848f, type: 2}
  m_StaticBatchInfo:
    firstSubMesh: 0
    subMeshCount: 0
  m_StaticBatchRoot: {fileID: 0}
  m_ProbeAnchor: {fileID: 0}
  m_LightProbeVolumeOverride: {fileID: 0}
  m_ScaleInLightmap: 1
  m_ReceiveGI: 1
  m_PreserveUVs: 0
  m_IgnoreNormalsForChartDetection: 0
  m_ImportantGI: 0
  m_StitchLightmapSeams: 1
  m_SelectedEditorRenderState: 3
  m_MinimumChartSize: 4
  m_AutoUVMaxDistance: 0.5
  m_AutoUVMaxAngle: 89
  m_LightmapParameters: {fileID: 0}
  m_SortingLayerID: 0
  m_SortingLayer: 0
  m_SortingOrder: 0
--- !u!1 &5942910070564742054
GameObject:
  m_ObjectHideFlags: 0
  m_CorrespondingSourceObject: {fileID: 0}
  m_PrefabInstance: {fileID: 0}
  m_PrefabAsset: {fileID: 0}
  serializedVersion: 6
  m_Component:
  - component: {fileID: 619094198629942784}
  - component: {fileID: 2746831248573002817}
  - component: {fileID: 3328601405401834839}
  m_Layer: 0
  m_Name: Dump Truck L
  m_TagString: Untagged
  m_Icon: {fileID: 0}
  m_NavMeshLayer: 0
  m_StaticEditorFlags: 0
  m_IsActive: 1
--- !u!4 &619094198629942784
Transform:
  m_ObjectHideFlags: 0
  m_CorrespondingSourceObject: {fileID: 0}
  m_PrefabInstance: {fileID: 0}
  m_PrefabAsset: {fileID: 0}
  m_GameObject: {fileID: 5942910070564742054}
  m_LocalRotation: {x: -0.5000001, y: -0.49999994, z: -0.50000006, w: 0.4999999}
  m_LocalPosition: {x: -3.6734972, y: 0.355, z: 2.4516635}
  m_LocalScale: {x: 0.10231585, y: 0.10231585, z: 0.10231587}
  m_Children: []
  m_Father: {fileID: 3205177161928467737}
  m_RootOrder: 3
  m_LocalEulerAnglesHint: {x: 0, y: 0, z: 0}
--- !u!33 &2746831248573002817
MeshFilter:
  m_ObjectHideFlags: 0
  m_CorrespondingSourceObject: {fileID: 0}
  m_PrefabInstance: {fileID: 0}
  m_PrefabAsset: {fileID: 0}
  m_GameObject: {fileID: 5942910070564742054}
  m_Mesh: {fileID: 4300000, guid: f5cb719d4366b61478ac96135de0f394, type: 2}
--- !u!23 &3328601405401834839
MeshRenderer:
  m_ObjectHideFlags: 0
  m_CorrespondingSourceObject: {fileID: 0}
  m_PrefabInstance: {fileID: 0}
  m_PrefabAsset: {fileID: 0}
  m_GameObject: {fileID: 5942910070564742054}
  m_Enabled: 1
  m_CastShadows: 0
  m_ReceiveShadows: 0
  m_DynamicOccludee: 1
  m_MotionVectors: 1
  m_LightProbeUsage: 1
  m_ReflectionProbeUsage: 1
  m_RenderingLayerMask: 1
  m_RendererPriority: 0
  m_Materials:
  - {fileID: 2100000, guid: 0f0f765fc4fed4e4096e957884b35b69, type: 2}
  - {fileID: 2100000, guid: ff72487f263b2c54590a2e5d6e1e9068, type: 2}
  - {fileID: 2100000, guid: f93a517b0e46f8b4c8292a59726cd595, type: 2}
  - {fileID: 2100000, guid: ff72487f263b2c54590a2e5d6e1e9068, type: 2}
  - {fileID: 2100000, guid: d97941978820cac4d8f8cf3d89b0b62f, type: 2}
  - {fileID: 2100000, guid: 37cfa703565ddd4439af166b390d4552, type: 2}
  m_StaticBatchInfo:
    firstSubMesh: 0
    subMeshCount: 0
  m_StaticBatchRoot: {fileID: 0}
  m_ProbeAnchor: {fileID: 0}
  m_LightProbeVolumeOverride: {fileID: 0}
  m_ScaleInLightmap: 1
  m_ReceiveGI: 1
  m_PreserveUVs: 0
  m_IgnoreNormalsForChartDetection: 0
  m_ImportantGI: 0
  m_StitchLightmapSeams: 1
  m_SelectedEditorRenderState: 3
  m_MinimumChartSize: 4
  m_AutoUVMaxDistance: 0.5
  m_AutoUVMaxAngle: 89
  m_LightmapParameters: {fileID: 0}
  m_SortingLayerID: 0
  m_SortingLayer: 0
  m_SortingOrder: 0
--- !u!1 &6166331270522886695
GameObject:
  m_ObjectHideFlags: 0
  m_CorrespondingSourceObject: {fileID: 0}
  m_PrefabInstance: {fileID: 0}
  m_PrefabAsset: {fileID: 0}
  serializedVersion: 6
  m_Component:
  - component: {fileID: 7589616119564376454}
  - component: {fileID: 8666444503637442326}
  - component: {fileID: 903012568496502683}
  m_Layer: 0
  m_Name: CautionBarrier.005
  m_TagString: Untagged
  m_Icon: {fileID: 0}
  m_NavMeshLayer: 0
  m_StaticEditorFlags: 0
  m_IsActive: 1
--- !u!4 &7589616119564376454
Transform:
  m_ObjectHideFlags: 0
  m_CorrespondingSourceObject: {fileID: 0}
  m_PrefabInstance: {fileID: 0}
  m_PrefabAsset: {fileID: 0}
  m_GameObject: {fileID: 6166331270522886695}
  m_LocalRotation: {x: -0.052689184, y: 0.70514095, z: 0.70514107, w: 0.05268906}
  m_LocalPosition: {x: 3.1625412, y: 0.28, z: -4.4266586}
  m_LocalScale: {x: 0.002186596, y: 0.002186596, z: 0.0021865955}
  m_Children: []
  m_Father: {fileID: 3205177161928467737}
  m_RootOrder: 1
  m_LocalEulerAnglesHint: {x: 0, y: 0, z: 0}
--- !u!33 &8666444503637442326
MeshFilter:
  m_ObjectHideFlags: 0
  m_CorrespondingSourceObject: {fileID: 0}
  m_PrefabInstance: {fileID: 0}
  m_PrefabAsset: {fileID: 0}
  m_GameObject: {fileID: 6166331270522886695}
  m_Mesh: {fileID: 4300000, guid: 0851e929c6de93140a4b5f599167f0c8, type: 2}
--- !u!23 &903012568496502683
MeshRenderer:
  m_ObjectHideFlags: 0
  m_CorrespondingSourceObject: {fileID: 0}
  m_PrefabInstance: {fileID: 0}
  m_PrefabAsset: {fileID: 0}
  m_GameObject: {fileID: 6166331270522886695}
  m_Enabled: 1
  m_CastShadows: 0
  m_ReceiveShadows: 0
  m_DynamicOccludee: 1
  m_MotionVectors: 1
  m_LightProbeUsage: 1
  m_ReflectionProbeUsage: 1
  m_RenderingLayerMask: 1
  m_RendererPriority: 0
  m_Materials:
  - {fileID: 2100000, guid: 46b6aae1112dc2144a74eccb4b02c858, type: 2}
  m_StaticBatchInfo:
    firstSubMesh: 0
    subMeshCount: 0
  m_StaticBatchRoot: {fileID: 0}
  m_ProbeAnchor: {fileID: 0}
  m_LightProbeVolumeOverride: {fileID: 0}
  m_ScaleInLightmap: 1
  m_ReceiveGI: 1
  m_PreserveUVs: 0
  m_IgnoreNormalsForChartDetection: 0
  m_ImportantGI: 0
  m_StitchLightmapSeams: 1
  m_SelectedEditorRenderState: 3
  m_MinimumChartSize: 4
  m_AutoUVMaxDistance: 0.5
  m_AutoUVMaxAngle: 89
  m_LightmapParameters: {fileID: 0}
  m_SortingLayerID: 0
  m_SortingLayer: 0
  m_SortingOrder: 0
--- !u!1 &6903654168920926851
GameObject:
  m_ObjectHideFlags: 0
  m_CorrespondingSourceObject: {fileID: 0}
  m_PrefabInstance: {fileID: 0}
  m_PrefabAsset: {fileID: 0}
  serializedVersion: 6
  m_Component:
  - component: {fileID: 8881538814817889826}
  - component: {fileID: 5680085794618176900}
  - component: {fileID: 7404135095592212000}
  m_Layer: 0
  m_Name: DrawCall_0061.010
  m_TagString: Untagged
  m_Icon: {fileID: 0}
  m_NavMeshLayer: 0
  m_StaticEditorFlags: 0
  m_IsActive: 1
--- !u!4 &8881538814817889826
Transform:
  m_ObjectHideFlags: 0
  m_CorrespondingSourceObject: {fileID: 0}
  m_PrefabInstance: {fileID: 0}
  m_PrefabAsset: {fileID: 0}
  m_GameObject: {fileID: 6903654168920926851}
  m_LocalRotation: {x: -0, y: -0, z: 0, w: 1}
  m_LocalPosition: {x: -0.80955833, y: 0.263, z: -0.56548464}
  m_LocalScale: {x: 0.04253833, y: 0.04253833, z: 0.04253833}
  m_Children: []
  m_Father: {fileID: 3205177161928467737}
  m_RootOrder: 2
  m_LocalEulerAnglesHint: {x: 0, y: 0, z: 0}
--- !u!33 &5680085794618176900
MeshFilter:
  m_ObjectHideFlags: 0
  m_CorrespondingSourceObject: {fileID: 0}
  m_PrefabInstance: {fileID: 0}
  m_PrefabAsset: {fileID: 0}
  m_GameObject: {fileID: 6903654168920926851}
  m_Mesh: {fileID: 4300000, guid: 7950aabab1de4b84392cb19fb700f1aa, type: 2}
--- !u!23 &7404135095592212000
MeshRenderer:
  m_ObjectHideFlags: 0
  m_CorrespondingSourceObject: {fileID: 0}
  m_PrefabInstance: {fileID: 0}
  m_PrefabAsset: {fileID: 0}
  m_GameObject: {fileID: 6903654168920926851}
  m_Enabled: 1
  m_CastShadows: 0
  m_ReceiveShadows: 0
  m_DynamicOccludee: 1
  m_MotionVectors: 1
  m_LightProbeUsage: 1
  m_ReflectionProbeUsage: 1
  m_RenderingLayerMask: 1
  m_RendererPriority: 0
  m_Materials:
  - {fileID: 2100000, guid: 15220ad0e21c0b547a54ec62237ef036, type: 2}
  m_StaticBatchInfo:
    firstSubMesh: 0
    subMeshCount: 0
  m_StaticBatchRoot: {fileID: 0}
  m_ProbeAnchor: {fileID: 0}
  m_LightProbeVolumeOverride: {fileID: 0}
  m_ScaleInLightmap: 1
  m_ReceiveGI: 1
  m_PreserveUVs: 0
  m_IgnoreNormalsForChartDetection: 0
  m_ImportantGI: 0
  m_StitchLightmapSeams: 1
  m_SelectedEditorRenderState: 3
  m_MinimumChartSize: 4
  m_AutoUVMaxDistance: 0.5
  m_AutoUVMaxAngle: 89
  m_LightmapParameters: {fileID: 0}
  m_SortingLayerID: 0
  m_SortingLayer: 0
  m_SortingOrder: 0
--- !u!1 &8951187754993279724
GameObject:
  m_ObjectHideFlags: 0
  m_CorrespondingSourceObject: {fileID: 0}
  m_PrefabInstance: {fileID: 0}
  m_PrefabAsset: {fileID: 0}
  serializedVersion: 6
  m_Component:
  - component: {fileID: 6100968283136398475}
  - component: {fileID: 8234438450780025474}
  - component: {fileID: 2077469470323579172}
  m_Layer: 0
  m_Name: Plane.001
  m_TagString: Untagged
  m_Icon: {fileID: 0}
  m_NavMeshLayer: 0
  m_StaticEditorFlags: 0
  m_IsActive: 1
--- !u!4 &6100968283136398475
Transform:
  m_ObjectHideFlags: 0
  m_CorrespondingSourceObject: {fileID: 0}
  m_PrefabInstance: {fileID: 0}
  m_PrefabAsset: {fileID: 0}
  m_GameObject: {fileID: 8951187754993279724}
  m_LocalRotation: {x: -0, y: -0, z: 0, w: 1}
  m_LocalPosition: {x: 0, y: 0.119, z: -0}
  m_LocalScale: {x: 1.6968364, y: 1.6968364, z: 1.6968364}
  m_Children: []
  m_Father: {fileID: 3205177161928467737}
  m_RootOrder: 4
  m_LocalEulerAnglesHint: {x: 0, y: 0, z: 0}
--- !u!33 &8234438450780025474
MeshFilter:
  m_ObjectHideFlags: 0
  m_CorrespondingSourceObject: {fileID: 0}
  m_PrefabInstance: {fileID: 0}
  m_PrefabAsset: {fileID: 0}
  m_GameObject: {fileID: 8951187754993279724}
  m_Mesh: {fileID: 4300000, guid: 0c8247b72c59d7840bc93e2ab1ab1037, type: 2}
--- !u!23 &2077469470323579172
MeshRenderer:
  m_ObjectHideFlags: 0
  m_CorrespondingSourceObject: {fileID: 0}
  m_PrefabInstance: {fileID: 0}
  m_PrefabAsset: {fileID: 0}
  m_GameObject: {fileID: 8951187754993279724}
  m_Enabled: 1
  m_CastShadows: 0
  m_ReceiveShadows: 0
  m_DynamicOccludee: 1
  m_MotionVectors: 1
  m_LightProbeUsage: 1
  m_ReflectionProbeUsage: 1
  m_RenderingLayerMask: 1
  m_RendererPriority: 0
  m_Materials:
  - {fileID: 2100000, guid: 1d2d902d68d621b49a0a64b0b16be7df, type: 2}
  m_StaticBatchInfo:
    firstSubMesh: 0
    subMeshCount: 0
  m_StaticBatchRoot: {fileID: 0}
  m_ProbeAnchor: {fileID: 0}
  m_LightProbeVolumeOverride: {fileID: 0}
  m_ScaleInLightmap: 1
  m_ReceiveGI: 1
  m_PreserveUVs: 0
  m_IgnoreNormalsForChartDetection: 0
  m_ImportantGI: 0
  m_StitchLightmapSeams: 1
  m_SelectedEditorRenderState: 3
  m_MinimumChartSize: 4
  m_AutoUVMaxDistance: 0.5
  m_AutoUVMaxAngle: 89
  m_LightmapParameters: {fileID: 0}
  m_SortingLayerID: 0
  m_SortingLayer: 0
  m_SortingOrder: 0
--- !u!74 &-7438262689014391314
AnimationClip:
  m_ObjectHideFlags: 0
  m_CorrespondingSourceObject: {fileID: 0}
  m_PrefabInstance: {fileID: 0}
  m_PrefabAsset: {fileID: 0}
  m_Name: legacy
  serializedVersion: 6
  m_Legacy: 1
  m_Compressed: 0
  m_UseHighQualityCurve: 1
  m_RotationCurves:
  - curve:
      serializedVersion: 2
      m_Curve:
      - serializedVersion: 3
        time: 0
        value: {x: -0.5000002, y: -0.5000001, z: -0.5000002, w: 0.49999967}
        inSlope: {x: 0, y: 0, z: 0, w: 0}
        outSlope: {x: 0, y: 0, z: 0, w: 0}
        tangentMode: 0
        weightedMode: 0
        inWeight: {x: 0, y: 0, z: 0, w: 0}
        outWeight: {x: 0.33333334, y: 0.33333334, z: 0.33333334, w: 0.33333334}
      - serializedVersion: 3
        time: 2.5
        value: {x: -0.5000002, y: -0.5000001, z: -0.5000002, w: 0.49999967}
        inSlope: {x: 0.13996549, y: -0.09292346, z: -0.09292357, w: -0.1399654}
        outSlope: {x: 0.13996549, y: -0.09292346, z: -0.09292357, w: -0.1399654}
        tangentMode: 0
        weightedMode: 0
        inWeight: {x: 0.33333334, y: 0.33333334, z: 0.33333334, w: 0.33333334}
        outWeight: {x: 0.33333334, y: 0.33333334, z: 0.33333334, w: 0.33333334}
      - serializedVersion: 3
        time: 3.3333333
        value: {x: -0.26672438, y: -0.65487254, z: -0.6548728, w: 0.26672402}
        inSlope: {x: 0.30000013, y: -0.124263935, z: -0.12426404, w: -0.29999983}
        outSlope: {x: 0.30000013, y: -0.124263935, z: -0.12426404, w: -0.29999983}
        tangentMode: 0
        weightedMode: 0
        inWeight: {x: 0.33333334, y: 0.33333334, z: 0.33333334, w: 0.33333334}
        outWeight: {x: 0.33333334, y: 0.33333334, z: 0.33333334, w: 0.33333334}
      - serializedVersion: 3
        time: 4.1666665
        value: {x: 0.000000030908623, y: -0.70710665, z: -0.7071069, w: -0.00000004371139}
        inSlope: {x: 0.16703649, y: -0.031268287, z: -0.03126823, w: -0.1670368}
        outSlope: {x: 0.16703649, y: -0.031268287, z: -0.03126823, w: -0.1670368}
        tangentMode: 0
        weightedMode: 0
        inWeight: {x: 0.33333334, y: 0.33333334, z: 0.33333334, w: 0.33333334}
        outWeight: {x: 0.33333334, y: 0.33333334, z: 0.33333334, w: 0.33333334}
      - serializedVersion: 3
        time: 5.2083335
        value: {x: 0.014587191, y: -0.70695627, z: -0.7069564, w: -0.014588271}
        inSlope: {x: 0.06098824, y: 0.0055243215, z: 0.0055243787, w: -0.06098822}
        outSlope: {x: 0.06098824, y: 0.0055243215, z: 0.0055243787, w: -0.06098822}
        tangentMode: 0
        weightedMode: 0
        inWeight: {x: 0.33333334, y: 0.33333334, z: 0.33333334, w: 0.33333334}
        outWeight: {x: 0.33333334, y: 0.33333334, z: 0.33333334, w: 0.33333334}
      - serializedVersion: 3
        time: 6.25
        value: {x: 0.12705885, y: -0.69559765, z: -0.69559777, w: -0.12705883}
        inSlope: {x: 0.16768675, y: 0.054737024, z: 0.054737024, w: -0.16768613}
        outSlope: {x: 0.16768675, y: 0.054737024, z: 0.054737024, w: -0.16768613}
        tangentMode: 0
        weightedMode: 0
        inWeight: {x: 0.33333334, y: 0.33333334, z: 0.33333334, w: 0.33333334}
        outWeight: {x: 0.33333334, y: 0.33333334, z: 0.33333334, w: 0.33333334}
      - serializedVersion: 3
        time: 7.5416665
        value: {x: 0.42078468, y: -0.5682784, z: -0.5682785, w: -0.42078447}
        inSlope: {x: 0.13580135, y: 0.12250674, z: 0.067142755, w: -0.19158554}
        outSlope: {x: 0.13580135, y: 0.12250674, z: 0.067142755, w: -0.19158554}
        tangentMode: 0
        weightedMode: 0
        inWeight: {x: 0.33333334, y: 0.33333334, z: 0.33333334, w: 0.33333334}
        outWeight: {x: 0.33333334, y: 0.33333334, z: 0.33333334, w: 0.33333334}
      - serializedVersion: 3
        time: 8.333333
        value: {x: 0.4557779, y: -0.4523438, z: -0.54000354, w: -0.5441028}
        inSlope: {x: 0.037866414, y: 0.05757536, z: 0.03163522, w: -0.06400335}
        outSlope: {x: 0.037866414, y: 0.05757536, z: 0.03163522, w: -0.06400335}
        tangentMode: 0
        weightedMode: 0
        inWeight: {x: 0.33333334, y: 0.33333334, z: 0.33333334, w: 0.33333334}
        outWeight: {x: 0.33333334, y: 0.33333334, z: 0.33333334, w: 0.33333334}
      - serializedVersion: 3
        time: 9.166667
        value: {x: 0.48205364, y: -0.4784213, z: -0.51704127, w: -0.52096623}
        inSlope: {x: 0.023642153, y: -0.023576487, z: 0.021412374, w: 0.021452356}
        outSlope: {x: 0.023642153, y: -0.023576487, z: 0.021412374, w: 0.021452356}
        tangentMode: 0
        weightedMode: 0
        inWeight: {x: 0.33333334, y: 0.33333334, z: 0.33333334, w: 0.33333334}
        outWeight: {x: 0.33333334, y: 0.33333334, z: 0.33333334, w: 0.33333334}
      - serializedVersion: 3
        time: 10.416667
        value: {x: 0.50174546, y: -0.49824628, z: -0.4979537, w: -0.50204015}
        inSlope: {x: 0.0997705, y: 0.13126299, z: 0.14674626, w: -0.08437741}
        outSlope: {x: 0.0997705, y: 0.13126299, z: 0.14674626, w: -0.08437741}
        tangentMode: 0
        weightedMode: 0
        inWeight: {x: 0.33333334, y: 0.33333334, z: 0.33333334, w: 0.33333334}
        outWeight: {x: 0.33333334, y: 0.33333334, z: 0.33333334, w: 0.33333334}
      - serializedVersion: 3
        time: 11.25
        value: {x: 0.6549017, y: -0.26625806, z: -0.26610175, w: -0.6552865}
        inSlope: {x: 0.12309198, y: 0.29847568, z: 0.29830045, w: -0.123164326}
        outSlope: {x: 0.12309198, y: 0.29847568, z: 0.29830045, w: -0.123164326}
        tangentMode: 0
        weightedMode: 0
        inWeight: {x: 0.33333334, y: 0.33333334, z: 0.33333334, w: 0.33333334}
        outWeight: {x: 0.33333334, y: 0.33333334, z: 0.33333334, w: 0.33333334}
      - serializedVersion: 3
        time: 12.083333
        value: {x: 0.7068987, y: -0.0007869665, z: -0.00078650436, w: -0.70731395}
        inSlope: {x: -0.00044585392, y: 0.3206032, z: 0.32041496, w: 0.0004461035}
        outSlope: {x: -0.00044585392, y: 0.3206032, z: 0.32041496, w: 0.0004461035}
        tangentMode: 0
        weightedMode: 0
        inWeight: {x: 0.33333334, y: 0.33333334, z: 0.33333334, w: 0.33333334}
        outWeight: {x: 0.33333334, y: 0.33333334, z: 0.33333334, w: 0.33333334}
      - serializedVersion: 3
        time: 12.916667
        value: {x: 0.65415853, y: 0.2680807, z: 0.2679233, w: -0.6545429}
        inSlope: {x: -0.111546606, y: 0.2873112, z: 0.28714252, w: 0.11161195}
        outSlope: {x: -0.111546606, y: 0.2873112, z: 0.28714252, w: 0.11161195}
        tangentMode: 0
        weightedMode: 0
        inWeight: {x: 0.33333334, y: 0.33333334, z: 0.33333334, w: 0.33333334}
        outWeight: {x: 0.33333334, y: 0.33333334, z: 0.33333334, w: 0.33333334}
      - serializedVersion: 3
        time: 13.75
        value: {x: 0.5209877, y: 0.47806516, z: 0.47778445, w: -0.52129406}
        inSlope: {x: -0.2286309, y: 0.23058827, z: 0.23045295, w: 0.22876526}
        outSlope: {x: -0.2286309, y: 0.23058827, z: 0.23045295, w: 0.22876526}
        tangentMode: 0
        weightedMode: 0
        inWeight: {x: 0.33333334, y: 0.33333334, z: 0.33333334, w: 0.33333334}
        outWeight: {x: 0.33333334, y: 0.33333334, z: 0.33333334, w: 0.33333334}
      - serializedVersion: 3
        time: 14.583333
        value: {x: 0.2731072, y: 0.65239435, z: 0.6520114, w: -0.27326763}
        inSlope: {x: -0.14872836, y: 0.10459755, z: 0.104536206, w: 0.14881591}
        outSlope: {x: -0.14872836, y: 0.10459755, z: 0.104536206, w: 0.14881591}
        tangentMode: 0
        weightedMode: 0
        inWeight: {x: 0.33333334, y: 0.33333334, z: 0.33333334, w: 0.33333334}
        outWeight: {x: 0.33333334, y: 0.33333334, z: 0.33333334, w: 0.33333334}
      - serializedVersion: 3
        time: 15.416667
        value: {x: 0.2731072, y: 0.65239435, z: 0.6520114, w: -0.27326763}
        inSlope: {x: 0.123323135, y: -0.101898216, z: -0.07892335, w: -0.1461522}
        outSlope: {x: 0.123323135, y: -0.101898216, z: -0.07892335, w: -0.1461522}
        tangentMode: 0
        weightedMode: 0
        inWeight: {x: 0.33333334, y: 0.33333334, z: 0.33333334, w: 0.33333334}
        outWeight: {x: 0.33333334, y: 0.33333334, z: 0.33333334, w: 0.33333334}
      - serializedVersion: 3
        time: 16.25
        value: {x: 0.47864568, y: 0.48256406, z: 0.5204725, w: -0.5168545}
        inSlope: {x: 0.124882445, y: -0.1034539, z: -0.08036466, w: -0.14759748}
        outSlope: {x: 0.124882445, y: -0.1034539, z: -0.08036466, w: -0.14759748}
        tangentMode: 0
        weightedMode: 0
        inWeight: {x: 0.33333334, y: 0.33333334, z: 0.33333334, w: 0.33333334}
        outWeight: {x: 0.33333334, y: 0.33333334, z: 0.33333334, w: 0.33333334}
      - serializedVersion: 3
        time: 17.083334
        value: {x: 0.48124453, y: 0.47997126, z: 0.51807034, w: -0.5192633}
        inSlope: {x: 0.062829174, y: -0.069174275, z: -0.06458136, w: -0.057735853}
        outSlope: {x: 0.062829174, y: -0.069174275, z: -0.06458136, w: -0.057735853}
        tangentMode: 0
        weightedMode: 0
        inWeight: {x: 0.33333334, y: 0.33333334, z: 0.33333334, w: 0.33333334}
        outWeight: {x: 0.33333334, y: 0.33333334, z: 0.33333334, w: 0.33333334}
      - serializedVersion: 3
        time: 17.5
        value: {x: 0.5323027, y: 0.42362252, z: 0.4654537, w: -0.56617206}
        inSlope: {x: 0.10924962, y: -0.12784308, z: -0.14009851, w: -0.09072615}
        outSlope: {x: 0.10924962, y: -0.12784308, z: -0.14009851, w: -0.09072615}
        tangentMode: 0
        weightedMode: 0
        inWeight: {x: 0.33333334, y: 0.33333334, z: 0.33333334, w: 0.33333334}
        outWeight: {x: 0.33333334, y: 0.33333334, z: 0.33333334, w: 0.33333334}
      - serializedVersion: 3
        time: 18.75
        value: {x: 0.6522521, y: 0.2730613, z: 0.27305755, w: -0.652261}
        inSlope: {x: 0.070675895, y: -0.17366782, z: -0.19040024, w: -0.057132013}
        outSlope: {x: 0.070675895, y: -0.17366782, z: -0.19040024, w: -0.057132013}
        tangentMode: 0
        weightedMode: 0
        inWeight: {x: 0.33333334, y: 0.33333334, z: 0.33333334, w: 0.33333334}
        outWeight: {x: 0.33333334, y: 0.33333334, z: 0.33333334, w: 0.33333334}
      - serializedVersion: 3
        time: 19.958334
        value: {x: 0.7071011, y: -0.0010935718, z: -0.0010935569, w: -0.70711076}
        inSlope: {x: 0.022696137, y: -0.11344334, z: -0.11344178, w: -0.022696434}
        outSlope: {x: 0.022696137, y: -0.11344334, z: -0.11344178, w: -0.022696434}
        tangentMode: 0
        weightedMode: 0
        inWeight: {x: 0.33333334, y: 0.33333334, z: 0.33333334, w: 0.33333334}
        outWeight: {x: 0.33333334, y: 0.33333334, z: 0.33333334, w: 0.33333334}
      - serializedVersion: 3
        time: 21.666666
        value: {x: 0.7071011, y: -0.0010935718, z: -0.0010935569, w: -0.70711076}
        inSlope: {x: -0.025810378, y: -0.14506803, z: -0.14506602, w: 0.025810841}
        outSlope: {x: -0.025810378, y: -0.14506803, z: -0.14506602, w: 0.025810841}
        tangentMode: 0
        weightedMode: 0
        inWeight: {x: 0.33333334, y: 0.33333334, z: 0.33333334, w: 0.33333334}
        outWeight: {x: 0.33333334, y: 0.33333334, z: 0.33333334, w: 0.33333334}
      - serializedVersion: 3
        time: 22.5
        value: {x: 0.6640838, y: -0.2428738, z: -0.24287044, w: -0.66409266}
        inSlope: {x: -0.12472686, y: -0.29980934, z: -0.29980516, w: 0.12472865}
        outSlope: {x: -0.12472686, y: -0.29980934, z: -0.29980516, w: 0.12472865}
        tangentMode: 0
        weightedMode: 0
        inWeight: {x: 0.33333334, y: 0.33333334, z: 0.33333334, w: 0.33333334}
        outWeight: {x: 0.33333334, y: 0.33333334, z: 0.33333334, w: 0.33333334}
      - serializedVersion: 3
        time: 23.333334
        value: {x: 0.49922284, y: -0.5007762, z: -0.5007692, w: -0.49922952}
        inSlope: {x: -0.098916486, y: -0.15474132, z: -0.15473913, w: 0.098917805}
        outSlope: {x: -0.098916486, y: -0.15474132, z: -0.15473913, w: 0.098917805}
        tangentMode: 0
        weightedMode: 0
        inWeight: {x: 0.33333334, y: 0.33333334, z: 0.33333334, w: 0.33333334}
        outWeight: {x: 0.33333334, y: 0.33333334, z: 0.33333334, w: 0.33333334}
      - serializedVersion: 3
        time: 25.25
        value: {x: 0.49922284, y: -0.5007762, z: -0.5007692, w: -0.49922952}
        inSlope: {x: -0.27556497, y: -0.18351322, z: -0.1835108, w: 0.2755686}
        outSlope: {x: -0.27556497, y: -0.18351322, z: -0.1835108, w: 0.2755686}
        tangentMode: 0
        weightedMode: 0
        inWeight: {x: 0.33333334, y: 0.33333334, z: 0.33333334, w: 0.33333334}
        outWeight: {x: 0.33333334, y: 0.33333334, z: 0.33333334, w: 0.33333334}
      - serializedVersion: 3
        time: 25.666666
        value: {x: 0.26958573, y: -0.65370363, z: -0.6536946, w: -0.26958936}
        inSlope: {x: -0.50757533, y: -0.22929077, z: -0.22928767, w: 0.5075821}
        outSlope: {x: -0.50757533, y: -0.22929077, z: -0.22928767, w: 0.5075821}
        tangentMode: 0
        weightedMode: 0
        inWeight: {x: 0.33333334, y: 0.33333334, z: 0.33333334, w: 0.33333334}
        outWeight: {x: 0.33333334, y: 0.33333334, z: 0.33333334, w: 0.33333334}
      - serializedVersion: 3
        time: 26.25
        value: {x: -0.0010933346, y: -0.7071108, z: -0.70710105, w: 0.0010933437}
        inSlope: {x: -0.23201036, y: -0.045777544, z: -0.045776878, w: 0.23201351}
        outSlope: {x: -0.23201036, y: -0.045777544, z: -0.045776878, w: 0.23201351}
        tangentMode: 0
        weightedMode: 0
        inWeight: {x: 0.33333334, y: 0.33333334, z: 0.33333334, w: 0.33333334}
        outWeight: {x: 0.33333334, y: 0.33333334, z: 0.33333334, w: 0.33333334}
      - serializedVersion: 3
        time: 26.5
        value: {x: -0.0010933346, y: -0.7071108, z: -0.70710105, w: 0.0010933437}
        inSlope: {x: -0.13525628, y: 0.027121961, z: 0.027121574, w: 0.13525796}
        outSlope: {x: -0.13525628, y: 0.027121961, z: 0.027121574, w: 0.13525796}
        tangentMode: 0
        weightedMode: 0
        inWeight: {x: 0.33333334, y: 0.33333334, z: 0.33333334, w: 0.33333334}
        outWeight: {x: 0.33333334, y: 0.33333334, z: 0.33333334, w: 0.33333334}
      - serializedVersion: 3
        time: 27.5
        value: {x: -0.27160588, y: -0.6528669, z: -0.6528579, w: 0.27160928}
        inSlope: {x: -0.27229086, y: 0.11884017, z: 0.11883801, w: 0.27229407}
        outSlope: {x: -0.27229086, y: 0.11884017, z: 0.11883801, w: 0.27229407}
        tangentMode: 0
        weightedMode: 0
        inWeight: {x: 0.33333334, y: 0.33333334, z: 0.33333334, w: 0.33333334}
        outWeight: {x: 0.33333334, y: 0.33333334, z: 0.33333334, w: 0.33333334}
      - serializedVersion: 3
        time: 28.333334
        value: {x: -0.49999702, y: -0.5000031, z: -0.49999705, w: 0.500003}
        inSlope: {x: -0.13703553, y: 0.091719106, z: 0.0917155, w: 0.13703512}
        outSlope: {x: -0.13703553, y: 0.091719106, z: 0.0917155, w: 0.13703512}
        tangentMode: 0
        weightedMode: 0
        inWeight: {x: 0.33333334, y: 0.33333334, z: 0.33333334, w: 0.33333334}
        outWeight: {x: 0.33333334, y: 0.33333334, z: 0.33333334, w: 0.33333334}
      - serializedVersion: 3
        time: 30
        value: {x: -0.5000002, y: -0.5000001, z: -0.5000002, w: 0.49999967}
        inSlope: {x: -0.0000018954285, y: 0.00000178814, z: -0.000001877547, w: -0.0000019848355}
        outSlope: {x: -0.0000018954285, y: 0.00000178814, z: -0.000001877547, w: -0.0000019848355}
        tangentMode: 0
        weightedMode: 0
        inWeight: {x: 0.33333334, y: 0.33333334, z: 0.33333334, w: 0.33333334}
        outWeight: {x: 0, y: 0, z: 0, w: 0}
      m_PreInfinity: 2
      m_PostInfinity: 2
      m_RotationOrder: 4
    path: Dump Truck L
  m_CompressedRotationCurves: []
  m_EulerCurves: []
  m_PositionCurves:
  - curve:
      serializedVersion: 2
      m_Curve:
      - serializedVersion: 3
        time: 0
        value: {x: -3.6734972, y: 0.23635274, z: 2.4516635}
        inSlope: {x: 0, y: 0, z: 0}
        outSlope: {x: 0, y: 0, z: 0}
        tangentMode: 0
        weightedMode: 0
        inWeight: {x: 0, y: 0, z: 0}
        outWeight: {x: 0, y: 0, z: 0}
      - serializedVersion: 3
        time: 2.5
        value: {x: -3.6734972, y: 0.23635274, z: -2.7848206}
        inSlope: {x: 0, y: 0, z: -0.023888826}
        outSlope: {x: 0, y: 0, z: -0.023888826}
        tangentMode: 0
        weightedMode: 0
        inWeight: {x: 0, y: 0, z: 0}
        outWeight: {x: 0, y: 0, z: 0}
      - serializedVersion: 3
        time: 3.3333333
        value: {x: -3.4454405, y: 0.23635274, z: -3.6664088}
        inSlope: {x: -0.0064446926, y: 0, z: -0.009467363}
        outSlope: {x: -0.0064446926, y: 0, z: -0.009467363}
        tangentMode: 0
        weightedMode: 0
        inWeight: {x: 0, y: 0, z: 0}
        outWeight: {x: 0, y: 0, z: 0}
      - serializedVersion: 3
        time: 4.1666665
        value: {x: -2.7131205, y: 0.23635274, z: -4.0199833}
        inSlope: {x: -0.0222404, y: 0, z: 0}
        outSlope: {x: -0.0222404, y: 0, z: 0}
        tangentMode: 0
        weightedMode: 0
        inWeight: {x: 0, y: 0, z: 0}
        outWeight: {x: 0, y: 0, z: 0}
      - serializedVersion: 3
        time: 5.2083335
        value: {x: -0.44299757, y: 0.23635274, z: -3.9675746}
        inSlope: {x: -0.028436959, y: 0, z: 0.00052404404}
        outSlope: {x: -0.028436959, y: 0, z: 0.00052404404}
        tangentMode: 0
        weightedMode: 0
        inWeight: {x: 0, y: 0, z: 0}
        outWeight: {x: 0, y: 0, z: 0}
      - serializedVersion: 3
        time: 6.25
        value: {x: 1.0253711, y: 0.23635274, z: -3.915166}
        inSlope: {x: -0.013551354, y: 0, z: 0.0020964146}
        outSlope: {x: -0.013551354, y: 0, z: 0.0020964146}
        tangentMode: 0
        weightedMode: 0
        inWeight: {x: 0, y: 0, z: 0}
        outWeight: {x: 0, y: 0, z: 0}
      - serializedVersion: 3
        time: 7.5416665
        value: {x: 1.9246742, y: 0.21930443, z: -3.1082568}
        inSlope: {x: -0.0058689117, y: 0.0005092919, z: 0.01030755}
        outSlope: {x: -0.0058689117, y: 0.0005092919, z: 0.01030755}
        tangentMode: 0
        weightedMode: 0
        inWeight: {x: 0, y: 0, z: 0}
        outWeight: {x: 0, y: 0, z: 0}
      - serializedVersion: 3
        time: 8.333333
        value: {x: 2.104366, y: 0.142976, z: -2.538595}
        inSlope: {x: 0, y: 0.002711475, z: 0.0114007}
        outSlope: {x: 0, y: 0.002711475, z: 0.0114007}
        tangentMode: 0
        weightedMode: 0
        inWeight: {x: 0, y: 0, z: 0}
        outWeight: {x: 0, y: 0, z: 0}
      - serializedVersion: 3
        time: 9.166667
        value: {x: 2.104366, y: -0.017791193, z: -1.5653007}
        inSlope: {x: 0, y: 0.0005996525, z: 0.022572398}
        outSlope: {x: 0, y: 0.0005996525, z: 0.022572398}
        tangentMode: 0
        weightedMode: 0
        inWeight: {x: 0, y: 0, z: 0}
        outWeight: {x: 0, y: 0, z: 0}
      - serializedVersion: 3
        time: 10.416667
        value: {x: 2.104366, y: -0.035780743, z: 0.712098}
        inSlope: {x: 0, y: 0, z: 0.01894772}
        outSlope: {x: 0, y: 0, z: 0.01894772}
        tangentMode: 0
        weightedMode: 0
        inWeight: {x: 0, y: 0, z: 0}
        outWeight: {x: 0, y: 0, z: 0}
      - serializedVersion: 3
        time: 11.25
        value: {x: 1.6361415, y: -0.035780743, z: 1.3547016}
        inSlope: {x: 0.011403441, y: 0, z: 0.004531741}
        outSlope: {x: 0.011403441, y: 0, z: 0.004531741}
        tangentMode: 0
        weightedMode: 0
        inWeight: {x: 0, y: 0, z: 0}
        outWeight: {x: 0, y: 0, z: 0}
      - serializedVersion: 3
        time: 12.083333
        value: {x: 0.96629214, y: -0.035780743, z: 1.453594}
        inSlope: {x: 0.011289775, y: 0, z: 0}
        outSlope: {x: 0.011289775, y: 0, z: 0}
        tangentMode: 0
        weightedMode: 0
        inWeight: {x: 0, y: 0, z: 0}
        outWeight: {x: 0, y: 0, z: 0}
      - serializedVersion: 3
        time: 12.916667
        value: {x: 0.36822927, y: -0.035780743, z: 0.98560435}
        inSlope: {x: 0.006833136, y: 0, z: -0.01063025}
        outSlope: {x: 0.006833136, y: 0, z: -0.01063025}
        tangentMode: 0
        weightedMode: 0
        inWeight: {x: 0, y: 0, z: 0}
        outWeight: {x: 0, y: 0, z: 0}
      - serializedVersion: 3
        time: 13.75
        value: {x: 0.19384691, y: -0.035780743, z: 0.4193914}
        inSlope: {x: 0, y: 0, z: -0.0091891885}
        outSlope: {x: 0, y: 0, z: -0.0091891885}
        tangentMode: 0
        weightedMode: 0
        inWeight: {x: 0, y: 0, z: 0}
        outWeight: {x: 0, y: 0, z: 0}
      - serializedVersion: 3
        time: 14.583333
        value: {x: 0.6541952, y: -0.035780743, z: -0.19820178}
        inSlope: {x: -0.012245715, y: 0, z: -0.011803314}
        outSlope: {x: -0.012245715, y: 0, z: -0.011803314}
        tangentMode: 0
        weightedMode: 0
        inWeight: {x: 0, y: 0, z: 0}
        outWeight: {x: 0, y: 0, z: 0}
      - serializedVersion: 3
        time: 15.416667
        value: {x: 1.4532051, y: -0.035780743, z: -0.95402205}
        inSlope: {x: -0.013985038, y: 0, z: -0.012268245}
        outSlope: {x: -0.013985038, y: 0, z: -0.012268245}
        tangentMode: 0
        weightedMode: 0
        inWeight: {x: 0, y: 0, z: 0}
        outWeight: {x: 0, y: 0, z: 0}
      - serializedVersion: 3
        time: 16.25
        value: {x: 2.0179129, y: -0.0141459275, z: -1.6830223}
        inSlope: {x: 0, y: -0.0010817405, z: -0.013364792}
        outSlope: {x: 0, y: -0.0010817405, z: -0.013364792}
        tangentMode: 0
        weightedMode: 0
        inWeight: {x: 0, y: 0, z: 0}
        outWeight: {x: 0, y: 0, z: 0}
      - serializedVersion: 3
        time: 17.083334
        value: {x: 2.0179129, y: 0.12875277, z: -2.5619237}
        inSlope: {x: 0, y: -0.0025878996, z: -0.014667749}
        outSlope: {x: 0, y: -0.0025878996, z: -0.014667749}
        tangentMode: 0
        weightedMode: 0
        inWeight: {x: 0, y: 0, z: 0}
        outWeight: {x: 0, y: 0, z: 0}
      - serializedVersion: 3
        time: 17.5
        value: {x: 2.0179129, y: 0.18487675, z: -2.956512}
        inSlope: {x: 0, y: -0.0008802861, z: -0.010746002}
        outSlope: {x: 0, y: -0.0008802861, z: -0.010746002}
        tangentMode: 0
        weightedMode: 0
        inWeight: {x: 0, y: 0, z: 0}
        outWeight: {x: 0, y: 0, z: 0}
      - serializedVersion: 3
        time: 18.75
        value: {x: 1.7135139, y: 0.21128523, z: -3.4724522}
        inSlope: {x: 0.008121014, y: 0, z: -0.005604267}
        outSlope: {x: 0.008121014, y: 0, z: -0.005604267}
        tangentMode: 0
        weightedMode: 0
        inWeight: {x: 0, y: 0, z: 0}
        outWeight: {x: 0, y: 0, z: 0}
      - serializedVersion: 3
        time: 19.958334
        value: {x: 0.56648207, y: 0.21128523, z: -3.9308398}
        inSlope: {x: 0.017418742, y: 0, z: 0}
        outSlope: {x: 0.017418742, y: 0, z: 0}
        tangentMode: 0
        weightedMode: 0
        inWeight: {x: 0, y: 0, z: 0}
        outWeight: {x: 0, y: 0, z: 0}
      - serializedVersion: 3
        time: 21.666666
        value: {x: -2.0342968, y: 0.21128523, z: -3.9308398}
        inSlope: {x: 0.0237813, y: 0, z: 0}
        outSlope: {x: 0.0237813, y: 0, z: 0}
        tangentMode: 0
        weightedMode: 0
        inWeight: {x: 0, y: 0, z: 0}
        outWeight: {x: 0, y: 0, z: 0}
      - serializedVersion: 3
        time: 22.5
        value: {x: -3.182786, y: 0.21128523, z: -3.7284627}
        inSlope: {x: 0.0091068745, y: 0, z: 0.007311344}
        outSlope: {x: 0.0091068745, y: 0, z: 0.007311344}
        tangentMode: 0
        weightedMode: 0
        inWeight: {x: 0, y: 0, z: 0}
        outWeight: {x: 0, y: 0, z: 0}
      - serializedVersion: 3
        time: 23.333334
        value: {x: -3.3649254, y: 0.21128523, z: -2.9018214}
        inSlope: {x: 0, y: 0, z: 0.022206068}
        outSlope: {x: 0, y: 0, z: 0.022206068}
        tangentMode: 0
        weightedMode: 0
        inWeight: {x: 0, y: 0, z: 0}
        outWeight: {x: 0, y: 0, z: 0}
      - serializedVersion: 3
        time: 25.25
        value: {x: -3.3649254, y: 0.21128523, z: 2.1072702}
        inSlope: {x: 0, y: 0, z: 0.040581465}
        outSlope: {x: 0, y: 0, z: 0.040581465}
        tangentMode: 0
        weightedMode: 0
        inWeight: {x: 0, y: 0, z: 0}
        outWeight: {x: 0, y: 0, z: 0}
      - serializedVersion: 3
        time: 25.666666
        value: {x: -3.271467, y: 0.21128523, z: 3.1166039}
        inSlope: {x: -0.00934577, y: 0, z: 0.020971298}
        outSlope: {x: -0.00934577, y: 0, z: 0.020971298}
        tangentMode: 0
        weightedMode: 0
        inWeight: {x: 0, y: 0, z: 0}
        outWeight: {x: 0, y: 0, z: 0}
      - serializedVersion: 3
        time: 26.25
        value: {x: -2.3969994, y: 0.21128523, z: 3.4102013}
        inSlope: {x: 0, y: 0, z: 0}
        outSlope: {x: 0, y: 0, z: 0}
        tangentMode: 0
        weightedMode: 0
        inWeight: {x: 0, y: 0, z: 0}
        outWeight: {x: 0, y: 0, z: 0}
      - serializedVersion: 3
        time: 26.5
        value: {x: -2.3969994, y: 0.21128523, z: 3.4102013}
        inSlope: {x: 0, y: 0, z: 0}
        outSlope: {x: 0, y: 0, z: 0}
        tangentMode: 0
        weightedMode: 0
        inWeight: {x: 0, y: 0, z: 0}
        outWeight: {x: 0, y: 0, z: 0}
      - serializedVersion: 3
        time: 27.5
        value: {x: -3.090655, y: 0.21128523, z: 3.6517422}
        inSlope: {x: 0.014516592, y: 0, z: 0.007187128}
        outSlope: {x: 0.014516592, y: 0, z: 0.007187128}
        tangentMode: 0
        weightedMode: 0
        inWeight: {x: 0, y: 0, z: 0}
        outWeight: {x: 0, y: 0, z: 0}
      - serializedVersion: 3
        time: 28.333334
        value: {x: -3.6735, y: 0.21426457, z: 4.011062}
        inSlope: {x: 0, y: -0.00014169514, z: 0}
        outSlope: {x: 0, y: -0.00014169514, z: 0}
        tangentMode: 0
        weightedMode: 0
        inWeight: {x: 0, y: 0, z: 0}
        outWeight: {x: 0, y: 0, z: 0}
      - serializedVersion: 3
        time: 30
        value: {x: -3.6734972, y: 0.23635274, z: 2.4516635}
        inSlope: {x: 0, y: 0, z: 0}
        outSlope: {x: 0, y: 0, z: 0}
        tangentMode: 0
        weightedMode: 0
        inWeight: {x: 0, y: 0, z: 0}
        outWeight: {x: 0, y: 0, z: 0}
      m_PreInfinity: 2
      m_PostInfinity: 2
      m_RotationOrder: 4
    path: Dump Truck L
  m_ScaleCurves:
  - curve:
      serializedVersion: 2
      m_Curve:
      - serializedVersion: 3
        time: 0
        value: {x: 0.10231585, y: 0.10231585, z: 0.10231587}
        inSlope: {x: 0, y: 0, z: 0}
        outSlope: {x: 0, y: 0, z: 0}
        tangentMode: 0
        weightedMode: 0
        inWeight: {x: 0, y: 0, z: 0}
        outWeight: {x: 0, y: 0, z: 0}
      - serializedVersion: 3
        time: 2.5
        value: {x: 0.10231585, y: 0.10231585, z: 0.10231587}
        inSlope: {x: 0, y: 0, z: 0}
        outSlope: {x: 0, y: 0, z: 0}
        tangentMode: 0
        weightedMode: 0
        inWeight: {x: 0, y: 0, z: 0}
        outWeight: {x: 0, y: 0, z: 0}
      - serializedVersion: 3
        time: 3.3333333
        value: {x: 0.10231585, y: 0.10231585, z: 0.10231587}
        inSlope: {x: 0, y: 0, z: 0}
        outSlope: {x: 0, y: 0, z: 0}
        tangentMode: 0
        weightedMode: 0
        inWeight: {x: 0, y: 0, z: 0}
        outWeight: {x: 0, y: 0, z: 0}
      - serializedVersion: 3
        time: 4.1666665
        value: {x: 0.10231585, y: 0.10231585, z: 0.10231587}
        inSlope: {x: 0, y: 0, z: 0}
        outSlope: {x: 0, y: 0, z: 0}
        tangentMode: 0
        weightedMode: 0
        inWeight: {x: 0, y: 0, z: 0}
        outWeight: {x: 0, y: 0, z: 0}
      - serializedVersion: 3
        time: 5.2083335
        value: {x: 0.10231585, y: 0.10231585, z: 0.10231587}
        inSlope: {x: 0, y: 0, z: 0}
        outSlope: {x: 0, y: 0, z: 0}
        tangentMode: 0
        weightedMode: 0
        inWeight: {x: 0, y: 0, z: 0}
        outWeight: {x: 0, y: 0, z: 0}
      - serializedVersion: 3
        time: 6.25
        value: {x: 0.10231585, y: 0.10231585, z: 0.10231587}
        inSlope: {x: 0, y: 0, z: 0}
        outSlope: {x: 0, y: 0, z: 0}
        tangentMode: 0
        weightedMode: 0
        inWeight: {x: 0, y: 0, z: 0}
        outWeight: {x: 0, y: 0, z: 0}
      - serializedVersion: 3
        time: 7.5416665
        value: {x: 0.10231585, y: 0.10231585, z: 0.10231587}
        inSlope: {x: 0, y: 0, z: 0}
        outSlope: {x: 0, y: 0, z: 0}
        tangentMode: 0
        weightedMode: 0
        inWeight: {x: 0, y: 0, z: 0}
        outWeight: {x: 0, y: 0, z: 0}
      - serializedVersion: 3
        time: 8.333333
        value: {x: 0.10231585, y: 0.10231585, z: 0.10231587}
        inSlope: {x: 0, y: 0, z: 0}
        outSlope: {x: 0, y: 0, z: 0}
        tangentMode: 0
        weightedMode: 0
        inWeight: {x: 0, y: 0, z: 0}
        outWeight: {x: 0, y: 0, z: 0}
      - serializedVersion: 3
        time: 9.166667
        value: {x: 0.10231585, y: 0.10231585, z: 0.10231587}
        inSlope: {x: 0, y: 0, z: 0}
        outSlope: {x: 0, y: 0, z: 0}
        tangentMode: 0
        weightedMode: 0
        inWeight: {x: 0, y: 0, z: 0}
        outWeight: {x: 0, y: 0, z: 0}
      - serializedVersion: 3
        time: 10.416667
        value: {x: 0.10231585, y: 0.10231585, z: 0.10231587}
        inSlope: {x: 0, y: 0, z: 0}
        outSlope: {x: 0, y: 0, z: 0}
        tangentMode: 0
        weightedMode: 0
        inWeight: {x: 0, y: 0, z: 0}
        outWeight: {x: 0, y: 0, z: 0}
      - serializedVersion: 3
        time: 11.25
        value: {x: 0.10231585, y: 0.10231585, z: 0.10231587}
        inSlope: {x: 0, y: 0, z: 0}
        outSlope: {x: 0, y: 0, z: 0}
        tangentMode: 0
        weightedMode: 0
        inWeight: {x: 0, y: 0, z: 0}
        outWeight: {x: 0, y: 0, z: 0}
      - serializedVersion: 3
        time: 12.083333
        value: {x: 0.10231585, y: 0.10231585, z: 0.10231587}
        inSlope: {x: 0, y: 0, z: 0}
        outSlope: {x: 0, y: 0, z: 0}
        tangentMode: 0
        weightedMode: 0
        inWeight: {x: 0, y: 0, z: 0}
        outWeight: {x: 0, y: 0, z: 0}
      - serializedVersion: 3
        time: 12.916667
        value: {x: 0.10231585, y: 0.10231585, z: 0.10231587}
        inSlope: {x: 0, y: 0, z: 0}
        outSlope: {x: 0, y: 0, z: 0}
        tangentMode: 0
        weightedMode: 0
        inWeight: {x: 0, y: 0, z: 0}
        outWeight: {x: 0, y: 0, z: 0}
      - serializedVersion: 3
        time: 13.75
        value: {x: 0.10231585, y: 0.10231585, z: 0.10231587}
        inSlope: {x: 0, y: 0, z: 0}
        outSlope: {x: 0, y: 0, z: 0}
        tangentMode: 0
        weightedMode: 0
        inWeight: {x: 0, y: 0, z: 0}
        outWeight: {x: 0, y: 0, z: 0}
      - serializedVersion: 3
        time: 14.583333
        value: {x: 0.10231585, y: 0.10231585, z: 0.10231587}
        inSlope: {x: 0, y: 0, z: 0}
        outSlope: {x: 0, y: 0, z: 0}
        tangentMode: 0
        weightedMode: 0
        inWeight: {x: 0, y: 0, z: 0}
        outWeight: {x: 0, y: 0, z: 0}
      - serializedVersion: 3
        time: 15.416667
        value: {x: 0.10231585, y: 0.10231585, z: 0.10231587}
        inSlope: {x: 0, y: 0, z: 0}
        outSlope: {x: 0, y: 0, z: 0}
        tangentMode: 0
        weightedMode: 0
        inWeight: {x: 0, y: 0, z: 0}
        outWeight: {x: 0, y: 0, z: 0}
      - serializedVersion: 3
        time: 16.25
        value: {x: 0.10231585, y: 0.10231585, z: 0.10231587}
        inSlope: {x: 0, y: 0, z: 0}
        outSlope: {x: 0, y: 0, z: 0}
        tangentMode: 0
        weightedMode: 0
        inWeight: {x: 0, y: 0, z: 0}
        outWeight: {x: 0, y: 0, z: 0}
      - serializedVersion: 3
        time: 17.083334
        value: {x: 0.10231585, y: 0.10231585, z: 0.10231587}
        inSlope: {x: 0, y: 0, z: 0}
        outSlope: {x: 0, y: 0, z: 0}
        tangentMode: 0
        weightedMode: 0
        inWeight: {x: 0, y: 0, z: 0}
        outWeight: {x: 0, y: 0, z: 0}
      - serializedVersion: 3
        time: 17.5
        value: {x: 0.10231585, y: 0.10231585, z: 0.10231587}
        inSlope: {x: 0, y: 0, z: 0}
        outSlope: {x: 0, y: 0, z: 0}
        tangentMode: 0
        weightedMode: 0
        inWeight: {x: 0, y: 0, z: 0}
        outWeight: {x: 0, y: 0, z: 0}
      - serializedVersion: 3
        time: 18.75
        value: {x: 0.10231585, y: 0.10231585, z: 0.10231587}
        inSlope: {x: 0, y: 0, z: 0}
        outSlope: {x: 0, y: 0, z: 0}
        tangentMode: 0
        weightedMode: 0
        inWeight: {x: 0, y: 0, z: 0}
        outWeight: {x: 0, y: 0, z: 0}
      - serializedVersion: 3
        time: 19.958334
        value: {x: 0.10231585, y: 0.10231585, z: 0.10231587}
        inSlope: {x: 0, y: 0, z: 0}
        outSlope: {x: 0, y: 0, z: 0}
        tangentMode: 0
        weightedMode: 0
        inWeight: {x: 0, y: 0, z: 0}
        outWeight: {x: 0, y: 0, z: 0}
      - serializedVersion: 3
        time: 21.666666
        value: {x: 0.10231585, y: 0.10231585, z: 0.10231587}
        inSlope: {x: 0, y: 0, z: 0}
        outSlope: {x: 0, y: 0, z: 0}
        tangentMode: 0
        weightedMode: 0
        inWeight: {x: 0, y: 0, z: 0}
        outWeight: {x: 0, y: 0, z: 0}
      - serializedVersion: 3
        time: 22.5
        value: {x: 0.10231585, y: 0.10231585, z: 0.10231587}
        inSlope: {x: 0, y: 0, z: 0}
        outSlope: {x: 0, y: 0, z: 0}
        tangentMode: 0
        weightedMode: 0
        inWeight: {x: 0, y: 0, z: 0}
        outWeight: {x: 0, y: 0, z: 0}
      - serializedVersion: 3
        time: 23.333334
        value: {x: 0.10231585, y: 0.10231585, z: 0.10231587}
        inSlope: {x: 0, y: 0, z: 0}
        outSlope: {x: 0, y: 0, z: 0}
        tangentMode: 0
        weightedMode: 0
        inWeight: {x: 0, y: 0, z: 0}
        outWeight: {x: 0, y: 0, z: 0}
      - serializedVersion: 3
        time: 25.25
        value: {x: 0.10231585, y: 0.10231585, z: 0.10231587}
        inSlope: {x: 0, y: 0, z: 0}
        outSlope: {x: 0, y: 0, z: 0}
        tangentMode: 0
        weightedMode: 0
        inWeight: {x: 0, y: 0, z: 0}
        outWeight: {x: 0, y: 0, z: 0}
      - serializedVersion: 3
        time: 25.666666
        value: {x: 0.10231585, y: 0.10231585, z: 0.10231587}
        inSlope: {x: 0, y: 0, z: 0}
        outSlope: {x: 0, y: 0, z: 0}
        tangentMode: 0
        weightedMode: 0
        inWeight: {x: 0, y: 0, z: 0}
        outWeight: {x: 0, y: 0, z: 0}
      - serializedVersion: 3
        time: 26.25
        value: {x: 0.10231585, y: 0.10231585, z: 0.10231587}
        inSlope: {x: 0, y: 0, z: 0}
        outSlope: {x: 0, y: 0, z: 0}
        tangentMode: 0
        weightedMode: 0
        inWeight: {x: 0, y: 0, z: 0}
        outWeight: {x: 0, y: 0, z: 0}
      - serializedVersion: 3
        time: 26.5
        value: {x: 0.10231585, y: 0.10231585, z: 0.10231587}
        inSlope: {x: 0, y: 0, z: 0}
        outSlope: {x: 0, y: 0, z: 0}
        tangentMode: 0
        weightedMode: 0
        inWeight: {x: 0, y: 0, z: 0}
        outWeight: {x: 0, y: 0, z: 0}
      - serializedVersion: 3
        time: 27.5
        value: {x: 0.10231585, y: 0.10231585, z: 0.10231587}
        inSlope: {x: 0, y: 0, z: 0}
        outSlope: {x: 0, y: 0, z: 0}
        tangentMode: 0
        weightedMode: 0
        inWeight: {x: 0, y: 0, z: 0}
        outWeight: {x: 0, y: 0, z: 0}
      - serializedVersion: 3
        time: 28.333334
        value: {x: 0.10231585, y: 0.10231585, z: 0.10231587}
        inSlope: {x: 0, y: 0, z: 0}
        outSlope: {x: 0, y: 0, z: 0}
        tangentMode: 0
        weightedMode: 0
        inWeight: {x: 0, y: 0, z: 0}
        outWeight: {x: 0, y: 0, z: 0}
      - serializedVersion: 3
        time: 30
        value: {x: 0.10231585, y: 0.10231585, z: 0.10231587}
        inSlope: {x: 0, y: 0, z: 0}
        outSlope: {x: 0, y: 0, z: 0}
        tangentMode: 0
        weightedMode: 0
        inWeight: {x: 0, y: 0, z: 0}
        outWeight: {x: 0, y: 0, z: 0}
      m_PreInfinity: 2
      m_PostInfinity: 2
      m_RotationOrder: 4
    path: Dump Truck L
  m_FloatCurves: []
  m_PPtrCurves: []
  m_SampleRate: 60
  m_WrapMode: 2
  m_Bounds:
    m_Center: {x: 0, y: 0, z: 0}
    m_Extent: {x: 0, y: 0, z: 0}
  m_ClipBindingConstant:
    genericBindings: []
    pptrCurveMapping: []
  m_AnimationClipSettings:
    serializedVersion: 2
    m_AdditiveReferencePoseClip: {fileID: 0}
    m_AdditiveReferencePoseTime: 0
    m_StartTime: 0
    m_StopTime: 30
    m_OrientationOffsetY: 0
    m_Level: 0
    m_CycleOffset: 0
    m_HasAdditiveReferencePose: 0
    m_LoopTime: 0
    m_LoopBlend: 0
    m_LoopBlendOrientation: 0
    m_LoopBlendPositionY: 0
    m_LoopBlendPositionXZ: 0
    m_KeepOriginalOrientation: 0
    m_KeepOriginalPositionY: 1
    m_KeepOriginalPositionXZ: 0
    m_HeightFromFeet: 0
    m_Mirror: 0
  m_EditorCurves: []
  m_EulerEditorCurves: []
  m_HasGenericRootTransform: 0
  m_HasMotionFloatCurves: 0
  m_Events: []
